<?xml version="1.0" encoding="utf-8"?>
<!-- Generator: Adobe Illustrator 16.0.0, SVG Export Plug-In . SVG Version: 6.00 Build 0)  -->
<!DOCTYPE svg PUBLIC "-//W3C//DTD SVG 1.1//EN" "http://www.w3.org/Graphics/SVG/1.1/DTD/svg11.dtd">
<svg version="1.1" id="Layer_1" xmlns="http://www.w3.org/2000/svg" xmlns:xlink="http://www.w3.org/1999/xlink" x="0px" y="0px"
	 width="50px" height="50px" viewBox="0 0 50 50" enable-background="new 0 0 50 50" xml:space="preserve">
<path d="M0,0v50h50V0H0z M48.293,49H1.706l9.505-9.505l-0.707-0.707L1,48.293V1.708l9.151,9.15l0.707-0.707L1.706,1h46.587
	l-9.505,9.504l0.708,0.707L49,1.707v46.586l-9.151-9.15l-0.707,0.707L48.293,49z"/>
<polygon fill="#999999" points="25,9.495 29.388,18.386 39.2,19.812 32.101,26.732 33.775,36.505 25,31.892 16.224,36.505 
	17.899,26.732 10.8,19.812 20.611,18.386 "/>
</svg>
