<?xml version="1.0" encoding="utf-8"?>
<!-- Generator: Adobe Illustrator 15.1.0, SVG Export Plug-In . SVG Version: 6.00 Build 0)  -->
<!DOCTYPE svg PUBLIC "-//W3C//DTD SVG 1.1//EN" "http://www.w3.org/Graphics/SVG/1.1/DTD/svg11.dtd">
<svg version="1.1" id="Layer_1" xmlns="http://www.w3.org/2000/svg" xmlns:xlink="http://www.w3.org/1999/xlink" x="0px" y="0px"
	 width="20px" height="25px" viewBox="0 0 20 25" enable-background="new 0 0 20 25" xml:space="preserve">
<path d="M20,25H0V0h20V25z M1,24h18V1H1V24z"/>
<g>
	<path d="M3.82,3.209c0,0.24-0.168,0.432-0.447,0.432c-0.256,0-0.424-0.191-0.424-0.432S3.125,2.77,3.389,2.77
		C3.645,2.77,3.82,2.961,3.82,3.209z M3.037,8.166V4.297H3.74v3.869H3.037z"/>
	<path d="M5.757,3.369v0.928h1.007v0.535H5.757v2.087c0,0.479,0.136,0.752,0.527,0.752c0.192,0,0.304-0.017,0.408-0.048l0.031,0.535
		C6.588,8.207,6.372,8.254,6.101,8.254c-0.328,0-0.592-0.111-0.76-0.295C5.149,7.742,5.069,7.398,5.069,6.943V4.832h-0.6V4.297h0.6
		v-0.72L5.757,3.369z"/>
	<path d="M7.9,6.359c0.016,0.951,0.616,1.344,1.327,1.344c0.504,0,0.816-0.088,1.072-0.2l0.127,0.504
		c-0.247,0.112-0.68,0.247-1.295,0.247c-1.191,0-1.903-0.791-1.903-1.959c0-1.167,0.688-2.078,1.815-2.078
		c1.271,0,1.6,1.104,1.6,1.814c0,0.145-0.008,0.248-0.024,0.328H7.9z M9.964,5.855C9.972,5.416,9.78,4.721,8.988,4.721
		c-0.72,0-1.023,0.647-1.08,1.135H9.964z"/>
	<path d="M11.517,5.344c0-0.407-0.016-0.728-0.031-1.047h0.615l0.032,0.631h0.024c0.215-0.367,0.575-0.711,1.223-0.711
		c0.52,0,0.92,0.32,1.088,0.775h0.016c0.12-0.224,0.28-0.384,0.439-0.504c0.232-0.176,0.48-0.271,0.848-0.271
		c0.52,0,1.279,0.336,1.279,1.679v2.271h-0.688V5.984c0-0.752-0.279-1.191-0.84-1.191c-0.407,0-0.711,0.295-0.839,0.631
		c-0.032,0.104-0.056,0.225-0.056,0.352v2.391H13.94V5.848c0-0.615-0.272-1.055-0.809-1.055c-0.432,0-0.76,0.352-0.871,0.703
		c-0.04,0.096-0.056,0.224-0.056,0.344v2.326h-0.688V5.344z"/>
</g>
<g>
	<path d="M2.838,11.871c0-0.357-0.014-0.639-0.028-0.918H3.35l0.028,0.553h0.021c0.189-0.322,0.504-0.623,1.071-0.623
		c0.456,0,0.806,0.28,0.953,0.68h0.014c0.105-0.196,0.245-0.336,0.385-0.441c0.203-0.154,0.42-0.238,0.742-0.238
		c0.455,0,1.12,0.295,1.12,1.471v1.989H7.083v-1.912c0-0.658-0.246-1.044-0.736-1.044c-0.357,0-0.623,0.26-0.735,0.554
		c-0.028,0.091-0.049,0.196-0.049,0.308v2.095H4.96v-2.031c0-0.539-0.238-0.925-0.707-0.925c-0.378,0-0.666,0.309-0.764,0.617
		c-0.035,0.084-0.049,0.195-0.049,0.301v2.038H2.838V11.871z"/>
	<path d="M11.513,13.411c0,0.357,0.007,0.665,0.028,0.932h-0.547l-0.035-0.554h-0.014c-0.154,0.273-0.518,0.631-1.12,0.631
		c-0.533,0-1.17-0.301-1.17-1.484v-1.982h0.616v1.869c0,0.645,0.203,1.086,0.756,1.086c0.414,0,0.701-0.287,0.813-0.566
		c0.035-0.084,0.057-0.197,0.057-0.316v-2.072h0.616V13.411z"/>
	<path d="M12.533,9.37h0.616v4.973h-0.616V9.37z"/>
	<path d="M14.928,10.141v0.813h0.883v0.469h-0.883v1.828c0,0.42,0.119,0.658,0.462,0.658c0.168,0,0.267-0.014,0.357-0.041
		l0.028,0.469c-0.119,0.042-0.309,0.084-0.547,0.084c-0.287,0-0.518-0.098-0.665-0.26c-0.169-0.188-0.238-0.49-0.238-0.889v-1.85
		H13.8v-0.469h0.525v-0.631L14.928,10.141z"/>
	<path d="M17.189,10c0,0.211-0.147,0.379-0.393,0.379c-0.225,0-0.371-0.168-0.371-0.379c0-0.209,0.154-0.385,0.385-0.385
		C17.035,9.615,17.189,9.783,17.189,10z M16.502,14.343v-3.39h0.617v3.39H16.502z"/>
	<path d="M4.446,15.847v1.074h1.169v0.623H4.446v2.422c0,0.558,0.157,0.873,0.611,0.873c0.223,0,0.353-0.021,0.475-0.056
		l0.036,0.621c-0.158,0.055-0.409,0.11-0.724,0.11c-0.381,0-0.686-0.129-0.881-0.344c-0.224-0.25-0.315-0.647-0.315-1.178v-2.449
		H2.95v-0.623h0.697v-0.836L4.446,15.847z"/>
	<path d="M6.931,19.314c0.02,1.104,0.715,1.559,1.541,1.559c0.584,0,0.946-0.1,1.244-0.229l0.147,0.582
		c-0.288,0.132-0.788,0.288-1.503,0.288c-1.383,0-2.209-0.918-2.209-2.273c0-1.354,0.799-2.411,2.106-2.411
		c1.477,0,1.857,1.279,1.857,2.106c0,0.165-0.011,0.287-0.028,0.378H6.931z M9.326,18.732c0.009-0.513-0.214-1.319-1.133-1.319
		c-0.835,0-1.188,0.751-1.253,1.319H9.326z"/>
	<path d="M11.014,20.586c0.249,0.149,0.675,0.318,1.083,0.318c0.586,0,0.864-0.287,0.864-0.668c0-0.393-0.232-0.597-0.824-0.818
		c-0.818-0.298-1.2-0.734-1.2-1.271c0-0.725,0.596-1.316,1.553-1.316c0.453,0,0.853,0.118,1.095,0.277L13.391,17.7
		c-0.178-0.111-0.503-0.268-0.922-0.268c-0.482,0-0.741,0.277-0.741,0.61c0,0.374,0.259,0.54,0.845,0.771
		c0.77,0.287,1.178,0.677,1.178,1.345c0,0.801-0.624,1.355-1.67,1.355c-0.492,0-0.949-0.129-1.264-0.315L11.014,20.586z"/>
	<path d="M15.779,15.847v1.074h1.171v0.623h-1.171v2.422c0,0.558,0.159,0.873,0.614,0.873c0.225,0,0.353-0.021,0.475-0.056
		l0.037,0.621c-0.159,0.055-0.409,0.11-0.725,0.11c-0.381,0-0.688-0.129-0.882-0.344c-0.224-0.25-0.315-0.647-0.315-1.178v-2.449
		h-0.697v-0.623h0.697v-0.836L15.779,15.847z"/>
</g>
</svg>
