<?xml version="1.0" encoding="utf-8"?>
<!-- Generator: Adobe Illustrator 16.0.0, SVG Export Plug-In . SVG Version: 6.00 Build 0)  -->
<!DOCTYPE svg PUBLIC "-//W3C//DTD SVG 1.1//EN" "http://www.w3.org/Graphics/SVG/1.1/DTD/svg11.dtd">
<svg version="1.1" id="Layer_1" xmlns="http://www.w3.org/2000/svg" xmlns:xlink="http://www.w3.org/1999/xlink" x="0px" y="0px"
	 width="50px" height="50px" viewBox="0 0 50 50" enable-background="new 0 0 50 50" xml:space="preserve">
<path d="M50,0H0v50h50V0z M49,48.293L37.854,37.146l-0.707,0.707L48.293,49H1.707l11.146-11.146l-0.707-0.707L1,48.293V1.708
	l11.146,11.146l0.707-0.707L1.707,1h46.586L37.146,12.146l0.707,0.707L49,1.707V48.293z"/>
<g>
	<path d="M11.141,25.979l-0.839,2.542h-1.08l2.747-8.083h1.259l2.758,8.083h-1.115l-0.864-2.542H11.141z M13.792,25.164L13,22.837
		c-0.18-0.527-0.3-1.007-0.419-1.475h-0.024c-0.12,0.48-0.251,0.972-0.408,1.463l-0.792,2.338H13.792z"/>
	<path d="M17.058,28.521c0.024-0.396,0.048-0.982,0.048-1.498v-7.017h1.043v3.646h0.024c0.372-0.648,1.043-1.067,1.979-1.067
		c1.439,0,2.458,1.199,2.447,2.961c0,2.076-1.308,3.107-2.603,3.107c-0.84,0-1.511-0.324-1.943-1.092h-0.036l-0.048,0.959H17.058z
		 M18.149,26.195c0,0.132,0.024,0.264,0.048,0.384c0.204,0.731,0.816,1.235,1.583,1.235c1.103,0,1.763-0.899,1.763-2.23
		c0-1.164-0.6-2.159-1.727-2.159c-0.72,0-1.391,0.492-1.607,1.295c-0.024,0.12-0.06,0.264-0.06,0.432V26.195z"/>
	<path d="M29.187,25.572c0,2.146-1.487,3.082-2.89,3.082c-1.572,0-2.783-1.152-2.783-2.986c0-1.943,1.271-3.083,2.879-3.083
		C28.06,22.585,29.187,23.796,29.187,25.572z M24.581,25.631c0,1.271,0.732,2.231,1.763,2.231c1.008,0,1.764-0.947,1.764-2.255
		c0-0.983-0.492-2.23-1.739-2.23S24.581,24.528,24.581,25.631z"/>
	<path d="M35.379,26.939c0,0.6,0.012,1.127,0.048,1.582h-0.936l-0.06-0.947h-0.024c-0.276,0.469-0.888,1.08-1.919,1.08
		c-0.911,0-2.003-0.504-2.003-2.543v-3.394h1.056v3.214c0,1.104,0.336,1.847,1.295,1.847c0.708,0,1.199-0.491,1.392-0.96
		c0.06-0.155,0.096-0.348,0.096-0.539v-3.562h1.056V26.939z"/>
	<path d="M38.405,21.05v1.667h1.511v0.803h-1.511v3.13c0,0.721,0.204,1.128,0.792,1.128c0.275,0,0.479-0.036,0.611-0.071
		l0.048,0.791c-0.204,0.084-0.528,0.145-0.936,0.145c-0.491,0-0.888-0.156-1.14-0.444c-0.3-0.312-0.408-0.827-0.408-1.511v-3.167
		h-0.898v-0.803h0.898v-1.392L38.405,21.05z"/>
</g>
</svg>
