<?xml version="1.0" encoding="utf-8"?>
<!-- Generator: Adobe Illustrator 16.0.0, SVG Export Plug-In . SVG Version: 6.00 Build 0)  -->
<!DOCTYPE svg PUBLIC "-//W3C//DTD SVG 1.1//EN" "http://www.w3.org/Graphics/SVG/1.1/DTD/svg11.dtd">
<svg version="1.1" id="Layer_1" xmlns="http://www.w3.org/2000/svg" xmlns:xlink="http://www.w3.org/1999/xlink" x="0px" y="0px"
	 width="50px" height="50px" viewBox="0 0 50 50" enable-background="new 0 0 50 50" xml:space="preserve">
<path d="M50,0H0v50h50V0z M49,48.293L37.854,37.146l-0.707,0.707L48.293,49H1.707l11.146-11.146l-0.707-0.707L1,48.293V1.708
	l11.146,11.146l0.707-0.707L1.707,1h46.586L37.146,12.146l0.707,0.707L49,1.707V48.293z"/>
<g>
	<path d="M6.141,25.979l-0.839,2.542h-1.08l2.747-8.083h1.259l2.758,8.083H9.871l-0.864-2.542H6.141z M8.792,25.164L8,22.837
		c-0.18-0.527-0.3-1.007-0.419-1.475H7.556c-0.12,0.48-0.251,0.972-0.408,1.463l-0.792,2.338H8.792z"/>
	<path d="M16.136,28.307c-0.276,0.144-0.887,0.336-1.667,0.336c-1.751,0-2.891-1.188-2.891-2.963c0-1.787,1.224-3.083,3.119-3.083
		c0.624,0,1.175,0.156,1.463,0.3l-0.24,0.815c-0.252-0.144-0.647-0.275-1.223-0.275c-1.332,0-2.051,0.983-2.051,2.194
		c0,1.344,0.864,2.172,2.015,2.172c0.6,0,0.996-0.156,1.295-0.288L16.136,28.307z"/>
	<path d="M21.439,28.307c-0.276,0.144-0.887,0.336-1.667,0.336c-1.751,0-2.891-1.188-2.891-2.963c0-1.787,1.224-3.083,3.119-3.083
		c0.624,0,1.175,0.156,1.463,0.3l-0.24,0.815c-0.252-0.144-0.647-0.275-1.223-0.275c-1.332,0-2.051,0.983-2.051,2.194
		c0,1.344,0.864,2.172,2.015,2.172c0.6,0,0.996-0.156,1.295-0.288L21.439,28.307z"/>
	<path d="M27.859,25.572c0,2.146-1.487,3.082-2.891,3.082c-1.571,0-2.783-1.152-2.783-2.986c0-1.943,1.271-3.083,2.878-3.083
		C26.732,22.585,27.859,23.796,27.859,25.572z M23.253,25.631c0,1.271,0.732,2.231,1.763,2.231c1.007,0,1.763-0.947,1.763-2.255
		c0-0.983-0.491-2.23-1.739-2.23C23.793,23.377,23.253,24.528,23.253,25.631z"/>
	<path d="M34.051,26.939c0,0.6,0.012,1.127,0.049,1.582h-0.936l-0.061-0.947H33.08c-0.276,0.469-0.888,1.08-1.92,1.08
		c-0.91,0-2.002-0.504-2.002-2.543v-3.394h1.055v3.214c0,1.104,0.336,1.847,1.296,1.847c0.708,0,1.199-0.491,1.392-0.96
		c0.06-0.155,0.096-0.348,0.096-0.539v-3.562h1.055V26.939z"/>
	<path d="M35.806,24.288c0-0.6-0.013-1.091-0.048-1.571h0.936l0.061,0.959h0.023c0.287-0.552,0.959-1.091,1.919-1.091
		c0.804,0,2.051,0.479,2.051,2.47v3.466h-1.056v-3.346c0-0.936-0.348-1.715-1.344-1.715c-0.695,0-1.234,0.492-1.414,1.079
		c-0.049,0.132-0.072,0.312-0.072,0.492v3.49h-1.056V24.288z"/>
	<path d="M43.689,21.05v1.667h1.512v0.803h-1.512v3.13c0,0.721,0.203,1.128,0.791,1.128c0.276,0,0.48-0.036,0.611-0.071l0.049,0.791
		c-0.204,0.084-0.527,0.145-0.936,0.145c-0.492,0-0.888-0.156-1.14-0.444c-0.3-0.312-0.407-0.827-0.407-1.511v-3.167h-0.9v-0.803
		h0.9v-1.392L43.689,21.05z"/>
</g>
</svg>
