<?xml version="1.0" encoding="utf-8"?>
<!-- Generator: Adobe Illustrator 16.0.0, SVG Export Plug-In . SVG Version: 6.00 Build 0)  -->
<!DOCTYPE svg PUBLIC "-//W3C//DTD SVG 1.1//EN" "http://www.w3.org/Graphics/SVG/1.1/DTD/svg11.dtd">
<svg version="1.1" id="Layer_1" xmlns="http://www.w3.org/2000/svg" xmlns:xlink="http://www.w3.org/1999/xlink" x="0px" y="0px"
	 width="50px" height="170px" viewBox="0 0 50 170" enable-background="new 0 0 50 170" xml:space="preserve">
<g enable-background="new    ">
	<path d="M24.469,105.346v-3.594c-0.854,0.094-1.563,0.379-2.129,0.855s-0.848,1.123-0.848,1.941c0,0.619,0.172,1.141,0.516,1.562
		s0.8,0.719,1.367,0.891l-0.523,2.289c-1.016-0.234-1.829-0.752-2.441-1.551c-0.612-0.8-0.918-1.84-0.918-3.121
		c0-1.667,0.554-2.969,1.66-3.906s2.548-1.406,4.324-1.406c1.208,0,2.247,0.217,3.117,0.652c0.87,0.435,1.544,1.032,2.023,1.793
		c0.479,0.76,0.719,1.677,0.719,2.75c0,2.609-1.227,4.216-3.68,4.82l-0.719-2.32c0.828-0.12,1.441-0.416,1.84-0.887
		c0.398-0.472,0.598-1.035,0.598-1.691c0-0.678-0.237-1.257-0.711-1.738c-0.474-0.482-1.231-0.793-2.273-0.934v3.594H24.469z"/>
	<path d="M19.688,98.619v-2.586l5.945-2.672l-5.945-2.281v-2.414l8.703,3.867c0.942,0.422,1.66,0.852,2.152,1.289
		s0.738,1.002,0.738,1.695c0,0.682-0.044,1.216-0.133,1.602H29.43c0.021-0.328,0.031-0.625,0.031-0.891
		c0-0.537-0.098-0.921-0.293-1.152c-0.195-0.232-0.616-0.455-1.262-0.668L19.688,98.619z"/>
	<path d="M34.508,79.432v1.508c-1.203,0.797-2.453,1.403-3.75,1.82s-2.552,0.625-3.766,0.625c-1.505,0-2.93-0.258-4.273-0.773
		c-1.167-0.448-2.242-1.016-3.227-1.703v-1.5c1.578,0.714,2.921,1.204,4.027,1.473s2.28,0.402,3.52,0.402
		c0.854,0,1.729-0.079,2.625-0.238s1.747-0.376,2.555-0.652C32.75,80.21,33.513,79.89,34.508,79.432z"/>
	<path d="M31.141,72.596v2.195h-8.273c0.75,0.802,1.305,1.747,1.664,2.836h-1.992c-0.188-0.573-0.543-1.195-1.066-1.867
		s-1.134-1.133-1.832-1.383v-1.781H31.141z"/>
	<path d="M22.492,61.877l0.234,2.125c-0.438,0.052-0.761,0.188-0.969,0.406s-0.312,0.503-0.312,0.852
		c0,0.464,0.208,0.855,0.625,1.176s1.284,0.522,2.602,0.605c-0.646-0.547-0.969-1.227-0.969-2.039c0-0.917,0.349-1.702,1.047-2.355
		s1.599-0.98,2.703-0.98c1.172,0,2.112,0.344,2.82,1.031s1.062,1.57,1.062,2.648c0,1.156-0.449,2.106-1.348,2.852
		s-2.371,1.117-4.418,1.117c-2.099,0-3.612-0.388-4.539-1.164s-1.391-1.784-1.391-3.023c0-0.87,0.243-1.59,0.73-2.16
		S21.565,62.033,22.492,61.877z M27.281,66.854c0.714,0,1.265-0.164,1.652-0.492s0.582-0.703,0.582-1.125
		c0-0.406-0.159-0.745-0.477-1.016s-0.839-0.406-1.562-0.406c-0.745,0-1.29,0.146-1.637,0.438s-0.52,0.656-0.52,1.094
		c0,0.422,0.165,0.778,0.496,1.07S26.636,66.854,27.281,66.854z"/>
	<path d="M22.844,60.01v-2.047h1.219c-0.417-0.266-0.755-0.625-1.016-1.078s-0.391-0.956-0.391-1.508
		c0-0.964,0.378-1.781,1.133-2.453s1.808-1.008,3.156-1.008c1.386,0,2.462,0.339,3.23,1.016s1.152,1.497,1.152,2.461
		c0,0.458-0.091,0.874-0.273,1.246s-0.495,0.765-0.938,1.176h4.18v2.195H22.844z M26.852,57.838c0.933,0,1.621-0.185,2.066-0.555
		s0.668-0.82,0.668-1.352c0-0.511-0.204-0.935-0.613-1.273s-1.079-0.508-2.012-0.508c-0.87,0-1.516,0.175-1.938,0.523
		s-0.633,0.781-0.633,1.297c0,0.536,0.207,0.981,0.621,1.336S26.039,57.838,26.852,57.838z"/>
	<path d="M22.844,46.369h1.75v1.5h3.344c0.677,0,1.071-0.015,1.184-0.043s0.204-0.094,0.277-0.195s0.109-0.226,0.109-0.371
		c0-0.203-0.07-0.497-0.211-0.883L31,46.189c0.219,0.511,0.328,1.089,0.328,1.734c0,0.396-0.066,0.753-0.199,1.07
		s-0.305,0.551-0.516,0.699s-0.496,0.251-0.855,0.309c-0.255,0.047-0.771,0.07-1.547,0.07h-3.617v1.008h-1.75v-1.008h-1.648
		l-1.281-2.203h2.93V46.369z"/>
	<path d="M34.508,45.455c-0.927-0.433-1.638-0.737-2.133-0.914s-1.065-0.341-1.711-0.492s-1.259-0.263-1.84-0.336
		s-1.176-0.109-1.785-0.109c-1.239,0-2.413,0.133-3.52,0.398s-2.449,0.755-4.027,1.469v-1.492c1.12-0.786,2.308-1.397,3.562-1.832
		s2.528-0.652,3.82-0.652c1.089,0,2.255,0.172,3.5,0.516c1.396,0.391,2.773,1.034,4.133,1.93V45.455z"/>
</g>
<path d="M0,170h50V0H0V170z M48.292,121l-23.293,23.293L1.706,121H48.292z M48.999,121.707v46.586L25.706,145L48.999,121.707z
	 M0.999,121.707L24.292,145L0.999,168.293V121.707z M1.707,169l23.292-23.293L48.292,169H1.707z M48.999,1v119h-48V1H48.999z"/>
</svg>
