<?xml version="1.0" encoding="utf-8"?>
<!-- Generator: Adobe Illustrator 16.0.0, SVG Export Plug-In . SVG Version: 6.00 Build 0)  -->
<!DOCTYPE svg PUBLIC "-//W3C//DTD SVG 1.1//EN" "http://www.w3.org/Graphics/SVG/1.1/DTD/svg11.dtd">
<svg version="1.1" id="Layer_1" xmlns="http://www.w3.org/2000/svg" xmlns:xlink="http://www.w3.org/1999/xlink" x="0px" y="0px"
	 width="50px" height="50px" viewBox="0 0 50 50" enable-background="new 0 0 50 50" xml:space="preserve">
<path d="M0,0v50h50V0H0z M48.293,49H1.706L12.14,38.566l-0.707-0.707L0.999,48.293V1.708L11.432,12.14l0.708-0.708L1.706,1h46.587
	L37.859,11.432l0.707,0.707L48.999,1.707L49,48.293L38.566,37.859l-0.707,0.707L48.293,49z"/>
<g enable-background="new    ">
	<path d="M15.559,18.398h9.109v11.453h-2.312V20.32h-4.484v9.531h-2.312V18.398z"/>
	<path d="M26.504,25.586c0-0.729,0.18-1.435,0.539-2.117s0.868-1.203,1.527-1.562c0.658-0.359,1.395-0.539,2.207-0.539
		c1.255,0,2.283,0.407,3.086,1.223c0.802,0.815,1.203,1.845,1.203,3.09c0,1.255-0.405,2.296-1.215,3.121
		c-0.811,0.825-1.83,1.238-3.059,1.238c-0.761,0-1.486-0.172-2.176-0.516c-0.69-0.344-1.215-0.848-1.574-1.512
		S26.504,26.539,26.504,25.586z M28.754,25.703c0,0.823,0.195,1.453,0.586,1.891s0.872,0.656,1.445,0.656
		c0.572,0,1.053-0.219,1.441-0.656c0.388-0.438,0.582-1.073,0.582-1.906c0-0.812-0.194-1.438-0.582-1.875
		c-0.389-0.438-0.869-0.656-1.441-0.656c-0.573,0-1.055,0.219-1.445,0.656S28.754,24.88,28.754,25.703z"/>
</g>
</svg>
