<?xml version="1.0" encoding="utf-8"?>
<!-- Generator: Adobe Illustrator 15.1.0, SVG Export Plug-In . SVG Version: 6.00 Build 0)  -->
<!DOCTYPE svg PUBLIC "-//W3C//DTD SVG 1.1//EN" "http://www.w3.org/Graphics/SVG/1.1/DTD/svg11.dtd">
<svg version="1.1" id="Layer_1" xmlns="http://www.w3.org/2000/svg" xmlns:xlink="http://www.w3.org/1999/xlink" x="0px" y="0px"
	 width="50px" height="100px" viewBox="0 0 50 100" enable-background="new 0 0 50 100" xml:space="preserve">
<ellipse transform="matrix(1 -8.490448e-004 8.490448e-004 1 -0.0265 -0.0208)" fill="#660033" cx="-24.538" cy="31.249" rx="72.462" ry="72.251"/>
<linearGradient id="SVGID_1_" gradientUnits="userSpaceOnUse" x1="-24.5376" y1="96" x2="-24.5376" y2="-26.9908">
	<stop  offset="0.0098" style="stop-color:#821928"/>
	<stop  offset="0.9951" style="stop-color:#96283C"/>
</linearGradient>
<ellipse fill="url(#SVGID_1_)" cx="-24.538" cy="33.583" rx="72.462" ry="66.917"/>
</svg>
