<?xml version="1.0" encoding="utf-8"?>
<!-- Generator: Adobe Illustrator 15.1.0, SVG Export Plug-In . SVG Version: 6.00 Build 0)  -->
<!DOCTYPE svg PUBLIC "-//W3C//DTD SVG 1.1//EN" "http://www.w3.org/Graphics/SVG/1.1/DTD/svg11.dtd">
<svg version="1.1" id="Livello_1" xmlns="http://www.w3.org/2000/svg" xmlns:xlink="http://www.w3.org/1999/xlink" x="0px" y="0px"
	 width="50px" height="50px" viewBox="0 0 50 50" enable-background="new 0 0 50 50" xml:space="preserve">
<linearGradient id="SVGID_1_" gradientUnits="userSpaceOnUse" x1="603.7852" y1="786.3096" x2="618.7852" y2="800.5596" gradientTransform="matrix(1 0 0 1 -568.4805 -751.0195)">
	<stop  offset="0" style="stop-color:#000000"/>
	<stop  offset="1" style="stop-color:#000000;stop-opacity:0.26"/>
</linearGradient>
<polygon opacity="0.09" fill="url(#SVGID_1_)" enable-background="new    " points="50,20 50,50 20,50 "/>
<g id="Livello_1_1_">
</g>
<polygon opacity="0.6" fill="#FFFFFF" enable-background="new    " points="20,50 20,20 50,20 "/>
<polygon opacity="0.3" fill="#FFFFFF" enable-background="new    " points="20.6,20.6 49.4,20.6 50,20 20,20 20,50 20.6,49.4 "/>
<radialGradient id="SVGID_2_" cx="39.5" cy="40" r="32.3622" gradientTransform="matrix(-0.7071 -0.7071 0.7367 -0.7367 37.9623 97.3991)" gradientUnits="userSpaceOnUse">
	<stop  offset="0" style="stop-color:#000000;stop-opacity:0.16"/>
	<stop  offset="0.9902" style="stop-color:#000000;stop-opacity:0"/>
</radialGradient>
<polygon fill="url(#SVGID_2_)" points="50,0 0,0 0,50 20,50 20,20 50,20 "/>
</svg>
