<?xml version="1.0" encoding="utf-8"?>
<!-- Generator: Adobe Illustrator 15.1.0, SVG Export Plug-In . SVG Version: 6.00 Build 0)  -->
<!DOCTYPE svg PUBLIC "-//W3C//DTD SVG 1.1//EN" "http://www.w3.org/Graphics/SVG/1.1/DTD/svg11.dtd">
<svg version="1.1" id="Layer_1" xmlns="http://www.w3.org/2000/svg" xmlns:xlink="http://www.w3.org/1999/xlink" x="0px" y="0px"
	 width="120px" height="120px" viewBox="0 0 120 120" enable-background="new 0 0 120 120" xml:space="preserve">
<linearGradient id="SVGID_1_" gradientUnits="userSpaceOnUse" x1="347.4805" y1="-306.8936" x2="347.4805" y2="-391.5547" gradientTransform="matrix(1 0 0 -1 -287.4805 -290.0195)">
	<stop  offset="0.0098" style="stop-color:#821928"/>
	<stop  offset="1" style="stop-color:#632D2D"/>
</linearGradient>
<circle fill="url(#SVGID_1_)" cx="60.001" cy="60" r="43.5"/>
<g>
	<path fill="none" stroke="#FFFFFF" stroke-width="3" stroke-miterlimit="10" d="M72.576,67.002c0,2.854-2.313,5.166-5.167,5.166
		l0,0c-2.854,0-5.165-2.313-5.165-5.167l0.001-14.521c0-2.854,2.313-5.166,5.166-5.166l0,0c2.854,0,5.167,2.313,5.166,5.167
		L72.576,67.002z"/>
	<path fill="none" stroke="#FFFFFF" stroke-width="3" stroke-miterlimit="10" d="M82.908,67.352c0,2.854-2.313,5.166-5.166,5.166
		l0,0c-2.854,0-5.166-2.313-5.166-5.166l0.001-12.846c0-2.854,2.313-5.167,5.167-5.167l0,0c2.854,0,5.165,2.313,5.165,5.167
		L82.908,67.352z"/>
	<path fill="none" stroke="#FFFFFF" stroke-width="3" stroke-miterlimit="10" d="M35.529,64.998L35.529,64.998
		c0-2.854,2.313-5.167,5.166-5.166l14.521,0.001c2.853,0,5.166,2.313,5.165,5.167l0,0c0,2.854-2.313,5.166-5.166,5.166l-8.675-0.001
		"/>
	<path fill="none" stroke="#FFFFFF" stroke-width="3" stroke-miterlimit="10" d="M57.08,46.896c-2.854,0-5.167,2.312-5.167,5.166
		v7.771h3.304c2.853,0,5.166,2.313,5.165,5.167c0,2.854-2.313,5.166-5.166,5.166h-1.848c0.938,0.973,2.251,1.583,3.71,1.583
		c2.854,0,5.167-2.313,5.167-5.166l0.001-14.521C62.246,49.208,59.933,46.896,57.08,46.896z"/>
	<path fill="none" stroke="#FFFFFF" stroke-width="3" stroke-miterlimit="10" d="M82.706,68.704
		c-0.598,2.192-2.582,3.813-4.964,3.813c-2.854,0-5.166-2.313-5.166-5.166v-0.35c0,2.854-2.313,5.166-5.167,5.166
		s-5.165-2.313-5.165-5.167v-0.418c0,2.853-2.313,5.166-5.167,5.166c-1.459,0-2.771-0.61-3.71-1.583h1.849
		c2.854,0,5.166-2.313,5.166-5.166s-2.313-5.167-5.165-5.167h-3.304V55.61l0.001-23.167c0-2.854-2.313-5.166-5.165-5.166
		c-2.854,0-5.167,2.312-5.167,5.166l-0.001,27.388h-0.886c-2.075,0-3.853,1.229-4.674,2.996c-0.019,0.031-0.037,0.064-0.055,0.1
		c-0.015,0.033-0.031,0.067-0.045,0.102c-0.251,0.531-0.393,1.177-0.393,1.969c0,7.377,11.75,24.227,19.127,24.227
		c3.301,0,6.315-1.203,8.646-3.185c1.865,0.989,3.99,1.556,6.249,1.556c7.375,0,13.357-5.979,13.357-13.357
		C82.908,72.098,82.837,70.277,82.706,68.704z"/>
</g>
</svg>
