<?xml version="1.0" encoding="utf-8"?>
<!-- Generator: Adobe Illustrator 15.1.0, SVG Export Plug-In . SVG Version: 6.00 Build 0)  -->
<!DOCTYPE svg PUBLIC "-//W3C//DTD SVG 1.1//EN" "http://www.w3.org/Graphics/SVG/1.1/DTD/svg11.dtd">
<svg version="1.1" id="Layer_1" xmlns="http://www.w3.org/2000/svg" xmlns:xlink="http://www.w3.org/1999/xlink" x="0px" y="0px"
	 width="50px" height="50px" viewBox="0 -9 50 50" enable-background="new 0 -9 50 50" xml:space="preserve">
<path opacity="0.2" d="M35.454,12.554c-3.795-3.795-8.985-5.325-13.919-4.62L21.533,0.18L9.16,12.554l12.374,12.374l0.002-8.419
	c4.51-2.274,10.151-1.535,13.918,2.231c4.7,4.699,4.697,12.315,0,17.014C41.861,29.345,41.86,18.96,35.454,12.554z"/>
<g opacity="0.3">
	<path d="M34.681,13.327c2.464,2.464,3.91,5.564,4.341,8.777c-0.639-1.505-1.57-2.914-2.796-4.139
		c-4.012-4.012-10.113-4.989-15.184-2.433l-0.601,0.302v0.674l-0.002,5.778l-9.733-9.733l9.733-9.733l0.002,5.113v1.261l1.247-0.179
		C26.517,8.327,31.251,9.897,34.681,13.327 M35.454,12.554c-3.795-3.795-8.985-5.325-13.919-4.62L21.533,0.18L9.16,12.554
		l12.374,12.374l0.002-8.419c4.51-2.274,10.151-1.535,13.918,2.231c4.7,4.699,4.697,12.315,0,17.014
		C41.861,29.345,41.86,18.96,35.454,12.554L35.454,12.554z"/>
</g>
</svg>
