<?xml version="1.0" encoding="utf-8"?>
<!-- Generator: Adobe Illustrator 15.1.0, SVG Export Plug-In . SVG Version: 6.00 Build 0)  -->
<!DOCTYPE svg PUBLIC "-//W3C//DTD SVG 1.1//EN" "http://www.w3.org/Graphics/SVG/1.1/DTD/svg11.dtd">
<svg version="1.1" id="Layer_1" xmlns="http://www.w3.org/2000/svg" xmlns:xlink="http://www.w3.org/1999/xlink" x="0px" y="0px"
	 width="50px" height="50px" viewBox="0 0 50 50" enable-background="new 0 0 50 50" xml:space="preserve">
<linearGradient id="SVGID_1_" gradientUnits="userSpaceOnUse" x1="609.8652" y1="2324.5205" x2="626.3663" y2="2353.7729" gradientTransform="matrix(1 0 0 1 -591.5391 -2311.4609)">
	<stop  offset="0" style="stop-color:#E6C8FA"/>
	<stop  offset="1" style="stop-color:#BD9FE2"/>
</linearGradient>
<path fill="url(#SVGID_1_)" d="M39.393,23.628c0-7.113-6.764-12.879-15.104-12.879c-8.344,0-15.107,5.766-15.107,12.879
	c0,7.113,6.763,12.881,15.107,12.881c2.156,0,4.207-0.396,6.063-1.088l8.354,5.83l-2.979-9.229
	C38.006,29.768,39.393,26.839,39.393,23.628z"/>
<path opacity="0.2" enable-background="new    " d="M39.393,23.628c0-7.113-6.764-12.879-15.104-12.879
	c-8.344,0-15.107,5.766-15.107,12.879c0,7.113,6.763,12.881,15.107,12.881c2.156,0,4.207-0.396,6.063-1.088l8.354,5.83l-2.979-9.229
	C38.006,29.768,39.393,26.839,39.393,23.628z M36.842,38.73l-5.919-4.133L30,34.482c-1.814,0.681-3.738,1.022-5.713,1.022
	c-7.779,0-14.107-5.327-14.107-11.88c0-6.55,6.328-11.879,14.107-11.879c7.777,0,14.105,5.329,14.105,11.879
	c0,2.807-1.195,5.534-3.367,7.686l-0.248,1.02L36.842,38.73z"/>
<path opacity="0.2" fill="#FFFFFF" d="M36.861,32.285c2.281-2.458,3.529-5.51,3.529-8.658c0-7.653-7.225-13.879-16.104-13.879
	c-8.881,0-16.107,6.226-16.107,13.879c0,7.652,7.226,13.878,16.107,13.878c2.03,0,4.019-0.327,5.913-0.974l10.367,7.238
	L36.861,32.285z M24.287,36.506c-8.344,0-15.107-5.768-15.107-12.878c0-7.113,6.763-12.879,15.107-12.879
	c8.34,0,15.104,5.766,15.104,12.879c0,3.208-1.387,6.138-3.664,8.394l2.979,9.229l-8.354-5.832
	C28.494,36.111,26.443,36.506,24.287,36.506z"/>
</svg>
