<?xml version="1.0" encoding="utf-8"?>
<!-- Generator: Adobe Illustrator 15.1.0, SVG Export Plug-In . SVG Version: 6.00 Build 0)  -->
<!DOCTYPE svg PUBLIC "-//W3C//DTD SVG 1.1//EN" "http://www.w3.org/Graphics/SVG/1.1/DTD/svg11.dtd">
<svg version="1.1" id="Layer_1" xmlns="http://www.w3.org/2000/svg" xmlns:xlink="http://www.w3.org/1999/xlink" x="0px" y="0px"
	 width="50px" height="50px" viewBox="0 0 50 50" enable-background="new 0 0 50 50" xml:space="preserve">
<polygon opacity="0.2" points="41.275,20 30,8.725 30,20 "/>
<polygon opacity="0.2" points="30,30 30,41.275 41.275,30 "/>
<polygon opacity="0.2" points="20,20 20,8.725 8.725,20 "/>
<polygon opacity="0.2" points="20,30 8.725,30 20,41.275 "/>
<rect x="21" y="21" opacity="0.2" width="8" height="8"/>
<path opacity="0.3" enable-background="new    " d="M30,8.725V20h11.275L30,8.725z M30.5,9.932l9.568,9.568H30.5V9.932z"/>
<path opacity="0.3" enable-background="new    " d="M30,41.275L41.275,30H30V41.275z M30.5,30.5h9.568L30.5,40.068V30.5z"/>
<path opacity="0.3" enable-background="new    " d="M20,20V8.725L8.725,20H20z M19.5,19.5H9.932L19.5,9.932V19.5z"/>
<path opacity="0.3" enable-background="new    " d="M20,41.275V30H8.725L20,41.275z M19.5,40.068L9.932,30.5H19.5V40.068z"/>
<path opacity="0.3" enable-background="new    " d="M21,29h8v-8h-8V29z M21.5,21.5h7v7h-7V21.5z"/>
<path opacity="0.2" fill="#FFFFFF" enable-background="new    " d="M30,21h13.689L29,6.311V20h-8V6.311L6.311,21H20v8H6.311
	L21,43.689V30h8v13.689L43.689,29H30V21z M30,8.725L41.275,20H30V8.725z M8.725,20L20,8.725V20H8.725z M20,41.275L8.725,30H20
	V41.275z M21,29v-8h8v8H21z M41.275,30L30,41.275V30H41.275z"/>
</svg>
