<?xml version="1.0" encoding="utf-8"?>
<!-- Generator: Adobe Illustrator 16.0.0, SVG Export Plug-In . SVG Version: 6.00 Build 0)  -->
<!DOCTYPE svg PUBLIC "-//W3C//DTD SVG 1.1//EN" "http://www.w3.org/Graphics/SVG/1.1/DTD/svg11.dtd">
<svg version="1.1" id="Layer_1" xmlns="http://www.w3.org/2000/svg" xmlns:xlink="http://www.w3.org/1999/xlink" x="0px" y="0px"
	 width="25px" height="25px" viewBox="0 0 25 25" enable-background="new 0 0 25 25" xml:space="preserve">
<g>
	<path fill="#0046BE" d="M14.107,5.421c-0.934,0.021-1.797,0.455-2.6,1.301c-0.802,0.845-1.483,2.295-2.046,4.35
		c2.101-0.064,3.733-0.424,4.904-1.076c1.168-0.653,1.752-1.557,1.752-2.713c0-0.45-0.136-0.866-0.404-1.251
		C15.443,5.646,14.908,5.442,14.107,5.421z"/>
	<path fill="#0046BE" d="M12.499,0C5.597,0,0,5.597,0,12.5C0,19.402,5.597,25,12.499,25C19.402,25,25,19.402,25,12.5
		C25,5.597,19.402,0,12.499,0z M16.623,10.779C15.1,11.666,12.636,12.24,9.236,12.5c-0.086,0.368-0.146,0.727-0.179,1.07
		c-0.033,0.348-0.049,0.683-0.049,1.008c0,1.299,0.33,2.359,0.99,3.183c0.66,0.822,1.629,1.232,2.905,1.232
		c0.414,0,0.82-0.065,1.219-0.194s0.778-0.292,1.135-0.486c0.357-0.192,0.685-0.397,0.978-0.617
		c0.291-0.217,0.548-0.407,0.765-0.584l0.521,0.617c-0.192,0.412-0.479,0.813-0.847,1.199c-0.366,0.393-0.801,0.743-1.299,1.059
		c-0.498,0.314-1.062,0.563-1.688,0.744c-0.629,0.188-1.3,0.277-2.015,0.277c-1.797,0-3.178-0.515-4.14-1.543
		c-0.963-1.027-1.445-2.451-1.445-4.27c0-1.536,0.217-2.988,0.649-4.354c0.433-1.365,1.04-2.555,1.819-3.572
		c0.779-1.018,1.726-1.819,2.841-2.404c1.115-0.584,2.354-0.876,3.719-0.876c1.036,0,1.93,0.265,2.678,0.796
		c0.746,0.531,1.121,1.315,1.121,2.354C18.912,8.68,18.15,9.892,16.623,10.779z"/>
</g>
</svg>
