<?xml version="1.0" encoding="utf-8"?>
<!-- Generator: Adobe Illustrator 16.2.0, SVG Export Plug-In . SVG Version: 6.00 Build 0)  -->
<!DOCTYPE svg PUBLIC "-//W3C//DTD SVG 1.1//EN" "http://www.w3.org/Graphics/SVG/1.1/DTD/svg11.dtd">
<svg version="1.1" id="Layer_1" xmlns="http://www.w3.org/2000/svg" xmlns:xlink="http://www.w3.org/1999/xlink" x="0px" y="0px"
	 width="25px" height="70px" viewBox="0 0 25 70" enable-background="new 0 0 25 70" xml:space="preserve">
<path fill="#0064C8" d="M0,52.458c0,2.763,2.238,5,5,5h23.916c2.761,0,5-2.237,5-5V5c0-2.761-2.239-5-5-5H5C2.238,0,0,2.239,0,5
	V52.458z"/>
<g opacity="0.1">
	<path d="M28.916,1c2.206,0,4,1.794,4,4v47.458c0,2.207-1.794,4-4,4H5c-2.206,0-4-1.793-4-4V5c0-2.206,1.794-4,4-4H28.916 M28.916,0
		H5C2.238,0,0,2.239,0,5v47.458c0,2.763,2.238,5,5,5h23.916c2.761,0,5-2.237,5-5V5C33.916,2.239,31.677,0,28.916,0L28.916,0z"/>
</g>
<g>
	<polygon fill="#FFFFFF" points="15.82,36.245 8.009,28.69 15.775,20.667 14.339,19.276 5.18,28.737 14.43,37.684 	"/>
	<g opacity="0.1">
		<path d="M14.339,19.276l1.437,1.391L8.008,28.69l7.813,7.555l-1.391,1.437l-9.25-8.945L14.339,19.276 M14.316,17.862l-0.696,0.719
			l-9.159,9.463l-0.695,0.719l0.719,0.695l9.25,8.944l0.725,0.695l0.689-0.724l1.396-1.438l0.689-0.72l-0.719-0.694l-7.093-6.856
			l7.072-7.304l0.694-0.719l-0.717-0.696l-1.438-1.391L14.316,17.862L14.316,17.862z"/>
	</g>
</g>
</svg>
