<?xml version="1.0" encoding="utf-8"?>
<!-- Generator: Adobe Illustrator 16.0.0, SVG Export Plug-In . SVG Version: 6.00 Build 0)  -->
<!DOCTYPE svg PUBLIC "-//W3C//DTD SVG 1.1//EN" "http://www.w3.org/Graphics/SVG/1.1/DTD/svg11.dtd">
<svg version="1.1" id="Layer_1" xmlns="http://www.w3.org/2000/svg" xmlns:xlink="http://www.w3.org/1999/xlink" x="0px" y="0px"
	 width="163px" height="36px" viewBox="0 0 163 36" enable-background="new 0 0 163 36" xml:space="preserve">
<g>
	<path stroke="#000000" stroke-width="0.5995" stroke-miterlimit="22.9256" d="M24.816,25.223h6 M53.472,25.223h5.599 M75.47,25.223
		h7.6 M129.778,25.223h8 M63.762,20.424v-6.797"/>
	<path fill-rule="evenodd" clip-rule="evenodd" d="M10.706,26.692c-0.023,0.151-0.065,0.318-0.123,0.496
		c-0.06,0.179-0.142,0.355-0.247,0.532s-0.236,0.336-0.395,0.482c-0.158,0.146-0.346,0.264-0.566,0.352
		c-0.222,0.089-0.477,0.135-0.768,0.137c-0.296-0.002-0.553-0.052-0.771-0.149c-0.22-0.097-0.405-0.229-0.558-0.394
		C7.124,27.985,7,27.801,6.899,27.597c-0.099-0.204-0.175-0.415-0.232-0.63c-0.057-0.216-0.098-0.423-0.123-0.623
		c-0.027-0.199-0.042-0.376-0.048-0.533c-0.007-0.154-0.01-0.274-0.008-0.357c0.001-0.538,0.057-0.993,0.163-1.365
		c0.106-0.371,0.253-0.669,0.438-0.895c0.185-0.227,0.396-0.39,0.634-0.491c0.237-0.1,0.488-0.149,0.753-0.148
		c0.401,0,0.741,0.082,1.018,0.245c0.276,0.162,0.505,0.399,0.68,0.713c0.176,0.313,0.313,0.696,0.412,1.151h0.49l-0.15-2.439h-0.48
		l-0.25,0.4c-0.067-0.049-0.154-0.104-0.258-0.165c-0.105-0.061-0.23-0.12-0.377-0.177c-0.145-0.057-0.313-0.104-0.503-0.14
		c-0.19-0.038-0.405-0.057-0.642-0.059c-0.415,0.002-0.791,0.064-1.13,0.187c-0.34,0.122-0.64,0.292-0.901,0.508
		c-0.26,0.219-0.48,0.47-0.657,0.757c-0.178,0.286-0.313,0.595-0.405,0.926c-0.09,0.332-0.136,0.672-0.136,1.021
		c0,0.368,0.042,0.73,0.125,1.085c0.084,0.354,0.213,0.688,0.384,1.001c0.172,0.312,0.39,0.587,0.655,0.825
		c0.264,0.238,0.575,0.425,0.935,0.562c0.36,0.135,0.77,0.203,1.23,0.206c0.187,0.002,0.387-0.013,0.6-0.048
		c0.213-0.033,0.428-0.099,0.645-0.193c0.216-0.095,0.421-0.235,0.616-0.417c0.195-0.183,0.365-0.421,0.513-0.718
		c0.146-0.295,0.258-0.66,0.335-1.093H10.706L10.706,26.692z"/>
	<path fill-rule="evenodd" clip-rule="evenodd" d="M17.496,25.203h-3.249v-2.039c-0.001-0.057-0.001-0.112,0.002-0.167
		c0.003-0.055,0.018-0.104,0.044-0.151c0.028-0.045,0.077-0.082,0.146-0.11c0.072-0.026,0.174-0.042,0.307-0.042h0.6v-0.47h-3.359
		v0.47h0.6c0.133,0,0.234,0.016,0.306,0.042c0.07,0.028,0.118,0.065,0.146,0.11c0.027,0.047,0.042,0.097,0.045,0.151
		s0.003,0.11,0.001,0.167v4.918c0.002,0.055,0.002,0.111-0.001,0.166c-0.003,0.056-0.019,0.105-0.045,0.152
		c-0.028,0.045-0.076,0.081-0.146,0.109c-0.072,0.027-0.173,0.042-0.306,0.042h-0.6v0.47h3.359v-0.47h-0.6
		c-0.133,0-0.235-0.015-0.307-0.042c-0.069-0.028-0.118-0.064-0.146-0.109c-0.026-0.047-0.042-0.097-0.044-0.152
		c-0.003-0.055-0.003-0.111-0.002-0.166v-2.409h3.249v2.409c0.001,0.055,0.001,0.111-0.002,0.166
		c-0.003,0.056-0.019,0.105-0.045,0.152c-0.028,0.045-0.077,0.081-0.146,0.109c-0.072,0.027-0.173,0.042-0.307,0.042h-0.6v0.47
		h3.359v-0.47h-0.6c-0.135,0-0.24-0.015-0.312-0.042c-0.072-0.028-0.122-0.064-0.15-0.109c-0.027-0.047-0.043-0.097-0.047-0.152
		c-0.001-0.055-0.003-0.111-0.001-0.166v-4.918c-0.002-0.057,0-0.112,0.001-0.167c0.003-0.055,0.02-0.104,0.047-0.151
		c0.028-0.045,0.078-0.082,0.15-0.11c0.071-0.026,0.177-0.042,0.312-0.042h0.6v-0.47h-3.359v0.47h0.6
		c0.133,0,0.235,0.016,0.307,0.042c0.07,0.028,0.118,0.065,0.146,0.11c0.026,0.047,0.042,0.097,0.045,0.151s0.003,0.11,0.002,0.167
		V25.203L17.496,25.203z"/>
	<path fill-rule="evenodd" clip-rule="evenodd" d="M21.439,28.69h0.179c0.089-0.001,0.186,0.002,0.292,0.01
		c0.106,0.008,0.213,0.028,0.318,0.06c0.107,0.032,0.205,0.082,0.294,0.151c0.089,0.069,0.16,0.165,0.215,0.287
		c0.054,0.121,0.082,0.275,0.083,0.465c-0.001,0.167-0.026,0.311-0.073,0.432c-0.047,0.119-0.111,0.218-0.192,0.293
		c-0.081,0.077-0.172,0.132-0.273,0.169c-0.1,0.036-0.205,0.053-0.313,0.053c-0.104-0.001-0.207-0.016-0.304-0.046
		c-0.098-0.029-0.187-0.067-0.264-0.114c-0.079-0.047-0.141-0.096-0.187-0.147s-0.069-0.101-0.07-0.146
		c0.001-0.034,0.014-0.06,0.038-0.079c0.025-0.019,0.053-0.034,0.085-0.044c0.031-0.01,0.059-0.018,0.081-0.024
		c0.05-0.015,0.095-0.037,0.136-0.066c0.041-0.03,0.072-0.067,0.096-0.111c0.024-0.043,0.036-0.093,0.037-0.148
		c-0.001-0.103-0.024-0.188-0.068-0.259c-0.044-0.07-0.102-0.124-0.172-0.16c-0.071-0.036-0.146-0.055-0.226-0.055
		c-0.102,0-0.193,0.028-0.275,0.082c-0.081,0.055-0.146,0.136-0.194,0.243c-0.049,0.107-0.074,0.24-0.075,0.398
		c0.001,0.111,0.033,0.225,0.099,0.339c0.065,0.114,0.159,0.22,0.283,0.315c0.123,0.098,0.272,0.174,0.447,0.233
		c0.175,0.059,0.372,0.089,0.592,0.091c0.163,0,0.324-0.018,0.481-0.055c0.157-0.036,0.305-0.089,0.442-0.158
		c0.138-0.07,0.259-0.157,0.364-0.26c0.105-0.103,0.188-0.221,0.247-0.353c0.06-0.134,0.09-0.28,0.091-0.441
		c-0.001-0.167-0.033-0.314-0.096-0.445c-0.062-0.131-0.146-0.243-0.252-0.336c-0.105-0.095-0.225-0.169-0.357-0.225
		c-0.131-0.056-0.268-0.092-0.409-0.107v-0.038c0.129-0.024,0.255-0.065,0.375-0.124c0.12-0.058,0.229-0.13,0.325-0.218
		c0.097-0.088,0.173-0.189,0.229-0.304c0.058-0.115,0.086-0.241,0.088-0.379c0-0.098-0.02-0.198-0.057-0.3
		c-0.038-0.102-0.095-0.199-0.171-0.293c-0.077-0.094-0.172-0.178-0.288-0.251c-0.116-0.075-0.252-0.134-0.407-0.177
		c-0.157-0.043-0.333-0.065-0.53-0.066c-0.18,0.001-0.35,0.025-0.51,0.076c-0.159,0.051-0.298,0.122-0.421,0.214
		c-0.122,0.092-0.218,0.201-0.287,0.327c-0.07,0.127-0.105,0.267-0.106,0.419c0.001,0.087,0.024,0.162,0.068,0.224
		c0.044,0.062,0.102,0.11,0.172,0.143c0.071,0.033,0.146,0.05,0.226,0.05c0.078-0.001,0.143-0.014,0.195-0.039
		c0.052-0.026,0.094-0.058,0.124-0.095c0.031-0.038,0.052-0.075,0.064-0.112c0.013-0.038,0.02-0.068,0.02-0.093
		c0.001-0.04-0.003-0.082-0.011-0.13c-0.009-0.048-0.027-0.095-0.053-0.141c-0.027-0.046-0.067-0.085-0.122-0.12
		c-0.021-0.011-0.04-0.021-0.061-0.031c-0.021-0.009-0.038-0.021-0.052-0.031c-0.015-0.012-0.021-0.025-0.022-0.04
		c0-0.025,0.018-0.056,0.052-0.091s0.083-0.07,0.147-0.105s0.141-0.063,0.229-0.087c0.09-0.023,0.19-0.035,0.301-0.036
		c0.022-0.002,0.062,0.003,0.119,0.012c0.058,0.008,0.122,0.026,0.194,0.055c0.073,0.028,0.143,0.07,0.21,0.129
		c0.068,0.056,0.125,0.133,0.169,0.229c0.045,0.098,0.068,0.218,0.07,0.362c-0.001,0.147-0.026,0.274-0.075,0.379
		c-0.048,0.104-0.112,0.192-0.191,0.261c-0.08,0.068-0.167,0.124-0.262,0.165c-0.095,0.04-0.19,0.07-0.286,0.09
		c-0.095,0.02-0.182,0.032-0.261,0.039c-0.08,0.005-0.144,0.009-0.192,0.007h-0.115V28.69L21.439,28.69z"/>
	<path fill-rule="evenodd" clip-rule="evenodd" d="M39.362,26.692c-0.023,0.151-0.065,0.318-0.123,0.496
		c-0.06,0.179-0.142,0.355-0.247,0.532s-0.237,0.336-0.395,0.482s-0.347,0.264-0.566,0.352c-0.222,0.089-0.477,0.135-0.768,0.137
		c-0.297-0.002-0.553-0.052-0.771-0.149c-0.22-0.097-0.405-0.229-0.558-0.394c-0.153-0.163-0.278-0.348-0.378-0.552
		c-0.099-0.204-0.175-0.415-0.232-0.63c-0.057-0.216-0.098-0.423-0.123-0.623c-0.027-0.199-0.042-0.376-0.048-0.533
		c-0.007-0.154-0.01-0.274-0.008-0.357c0.001-0.538,0.057-0.993,0.163-1.365c0.106-0.371,0.253-0.669,0.438-0.895
		c0.185-0.227,0.396-0.39,0.634-0.491c0.237-0.1,0.488-0.149,0.753-0.148c0.401,0,0.741,0.082,1.018,0.245
		c0.276,0.162,0.504,0.399,0.68,0.713c0.176,0.313,0.313,0.696,0.412,1.151h0.49l-0.15-2.439h-0.48l-0.25,0.4
		c-0.067-0.049-0.153-0.104-0.258-0.165c-0.105-0.061-0.23-0.12-0.376-0.177c-0.145-0.057-0.313-0.104-0.503-0.14
		c-0.19-0.038-0.405-0.057-0.642-0.059c-0.415,0.002-0.791,0.064-1.13,0.187c-0.34,0.122-0.64,0.292-0.901,0.508
		c-0.26,0.219-0.48,0.47-0.657,0.757c-0.178,0.286-0.313,0.595-0.405,0.926c-0.09,0.332-0.136,0.672-0.136,1.021
		c0,0.368,0.042,0.73,0.125,1.085c0.085,0.354,0.213,0.688,0.385,1.001c0.172,0.312,0.39,0.587,0.655,0.825
		c0.264,0.238,0.575,0.425,0.935,0.562c0.36,0.135,0.77,0.203,1.23,0.206c0.187,0.002,0.387-0.013,0.6-0.048
		c0.213-0.033,0.428-0.099,0.645-0.193c0.216-0.095,0.421-0.235,0.616-0.417c0.195-0.183,0.365-0.421,0.513-0.718
		c0.146-0.295,0.258-0.66,0.335-1.093H39.362L39.362,26.692z"/>
	<path fill-rule="evenodd" clip-rule="evenodd" d="M46.151,25.203h-3.249v-2.039c-0.001-0.057-0.001-0.112,0.002-0.167
		c0.003-0.055,0.018-0.104,0.044-0.151c0.028-0.045,0.077-0.082,0.146-0.11c0.072-0.026,0.174-0.042,0.307-0.042h0.6v-0.47h-3.359
		v0.47h0.6c0.133,0,0.234,0.016,0.306,0.042c0.07,0.028,0.118,0.065,0.146,0.11c0.027,0.047,0.042,0.097,0.045,0.151
		s0.003,0.11,0.001,0.167v4.918c0.002,0.055,0.002,0.111-0.001,0.166c-0.003,0.056-0.019,0.105-0.045,0.152
		c-0.028,0.045-0.076,0.081-0.146,0.109c-0.072,0.027-0.173,0.042-0.306,0.042h-0.6v0.47h3.359v-0.47h-0.6
		c-0.133,0-0.235-0.015-0.307-0.042c-0.069-0.028-0.118-0.064-0.146-0.109c-0.026-0.047-0.042-0.097-0.044-0.152
		c-0.003-0.055-0.003-0.111-0.002-0.166v-2.409h3.249v2.409c0.001,0.055,0.001,0.111-0.002,0.166
		c-0.003,0.056-0.019,0.105-0.045,0.152c-0.028,0.045-0.077,0.081-0.146,0.109c-0.072,0.027-0.173,0.042-0.307,0.042h-0.6v0.47
		h3.358v-0.47h-0.6c-0.135,0-0.24-0.015-0.312-0.042c-0.072-0.028-0.122-0.064-0.15-0.109c-0.027-0.047-0.043-0.097-0.047-0.152
		c-0.001-0.055-0.003-0.111-0.001-0.166v-4.918c-0.002-0.057,0-0.112,0.001-0.167c0.003-0.055,0.02-0.104,0.047-0.151
		c0.028-0.045,0.078-0.082,0.15-0.11c0.071-0.026,0.177-0.042,0.312-0.042h0.6v-0.47h-3.358v0.47h0.6
		c0.133,0,0.235,0.016,0.307,0.042c0.07,0.028,0.118,0.065,0.146,0.11c0.026,0.047,0.042,0.097,0.045,0.151s0.003,0.11,0.002,0.167
		V25.203L46.151,25.203z"/>
	<path fill-rule="evenodd" clip-rule="evenodd" d="M51.905,29.458v0.115c0,0.139-0.015,0.252-0.042,0.34
		c-0.028,0.089-0.065,0.158-0.113,0.207c-0.048,0.049-0.103,0.084-0.164,0.105c-0.061,0.021-0.125,0.034-0.192,0.039
		c-0.067,0.005-0.133,0.007-0.199,0.006h-1.279c0.002-0.01,0.011-0.032,0.028-0.069c0.018-0.038,0.051-0.089,0.102-0.154
		c0.049-0.066,0.124-0.148,0.223-0.245c0.099-0.099,0.23-0.213,0.396-0.344c0.144-0.11,0.29-0.216,0.439-0.314
		c0.15-0.1,0.294-0.2,0.433-0.303s0.262-0.215,0.373-0.335c0.11-0.121,0.197-0.257,0.261-0.409c0.065-0.153,0.098-0.328,0.099-0.526
		c-0.001-0.178-0.027-0.332-0.08-0.465c-0.053-0.133-0.124-0.245-0.215-0.338c-0.09-0.093-0.194-0.167-0.311-0.224
		c-0.116-0.058-0.24-0.1-0.37-0.125c-0.131-0.025-0.262-0.038-0.394-0.038c-0.182,0.001-0.348,0.024-0.497,0.07
		c-0.15,0.046-0.283,0.108-0.398,0.188s-0.212,0.17-0.291,0.271c-0.079,0.102-0.139,0.208-0.18,0.32
		c-0.041,0.112-0.061,0.224-0.061,0.335c0,0.119,0.023,0.222,0.067,0.305c0.044,0.084,0.104,0.147,0.179,0.192
		c0.076,0.043,0.162,0.065,0.259,0.065c0.091-0.002,0.168-0.023,0.23-0.065c0.062-0.042,0.108-0.097,0.139-0.161
		c0.031-0.065,0.047-0.133,0.047-0.202c0-0.062-0.015-0.12-0.042-0.174c-0.028-0.053-0.066-0.098-0.115-0.132
		c-0.05-0.034-0.109-0.054-0.175-0.059c-0.021-0.001-0.044-0.003-0.065-0.005c-0.021,0-0.04-0.006-0.054-0.015
		c-0.014-0.01-0.021-0.026-0.022-0.051c0-0.051,0.018-0.106,0.054-0.172c0.036-0.065,0.088-0.129,0.16-0.192
		c0.07-0.062,0.158-0.113,0.262-0.154c0.104-0.042,0.225-0.062,0.363-0.063c0.095,0,0.188,0.016,0.277,0.048
		c0.089,0.031,0.17,0.081,0.242,0.147c0.072,0.066,0.129,0.152,0.171,0.255c0.042,0.103,0.064,0.227,0.065,0.368
		c-0.001,0.185-0.022,0.346-0.064,0.484c-0.042,0.139-0.102,0.262-0.177,0.368c-0.074,0.107-0.163,0.205-0.262,0.295
		c-0.1,0.091-0.208,0.18-0.324,0.268s-0.235,0.182-0.36,0.281c-0.124,0.1-0.246,0.214-0.369,0.34
		c-0.124,0.127-0.242,0.273-0.355,0.442c-0.114,0.167-0.219,0.362-0.315,0.586v0.256h2.892v-1.362H51.905L51.905,29.458z"/>
	<path fill-rule="evenodd" clip-rule="evenodd" d="M66.159,26.692c-0.023,0.151-0.065,0.318-0.124,0.496
		c-0.06,0.179-0.142,0.355-0.247,0.532s-0.236,0.336-0.395,0.482c-0.158,0.146-0.346,0.264-0.566,0.352
		c-0.222,0.089-0.477,0.135-0.768,0.137c-0.296-0.002-0.553-0.052-0.771-0.149c-0.22-0.097-0.405-0.229-0.558-0.394
		c-0.153-0.163-0.278-0.348-0.378-0.552c-0.099-0.204-0.175-0.415-0.231-0.63c-0.057-0.216-0.099-0.423-0.124-0.623
		c-0.027-0.199-0.042-0.376-0.048-0.533c-0.007-0.154-0.01-0.274-0.008-0.357c0.001-0.538,0.057-0.993,0.163-1.365
		c0.107-0.371,0.253-0.669,0.438-0.895c0.185-0.227,0.396-0.39,0.635-0.491c0.236-0.1,0.488-0.149,0.753-0.148
		c0.401,0,0.741,0.082,1.018,0.245c0.276,0.162,0.505,0.399,0.68,0.713c0.177,0.313,0.313,0.696,0.412,1.151h0.49l-0.15-2.439h-0.48
		l-0.25,0.4c-0.067-0.049-0.153-0.104-0.258-0.165c-0.105-0.061-0.23-0.12-0.377-0.177c-0.145-0.057-0.313-0.104-0.503-0.14
		c-0.19-0.038-0.405-0.057-0.642-0.059c-0.415,0.002-0.791,0.064-1.129,0.187c-0.34,0.122-0.64,0.292-0.901,0.508
		c-0.26,0.219-0.48,0.47-0.656,0.757c-0.179,0.286-0.313,0.595-0.405,0.926c-0.09,0.332-0.137,0.672-0.137,1.021
		c0,0.368,0.042,0.73,0.125,1.085c0.084,0.354,0.213,0.688,0.385,1.001c0.171,0.312,0.39,0.587,0.655,0.825
		c0.263,0.238,0.575,0.425,0.935,0.562c0.36,0.135,0.77,0.203,1.229,0.206c0.187,0.002,0.387-0.013,0.6-0.048
		c0.213-0.033,0.428-0.099,0.645-0.193s0.421-0.235,0.616-0.417c0.195-0.183,0.365-0.421,0.513-0.718
		c0.147-0.295,0.258-0.66,0.335-1.093H66.159L66.159,26.692z"/>
	<path fill-rule="evenodd" clip-rule="evenodd" d="M72.948,25.203h-3.249v-2.039c-0.001-0.057-0.001-0.112,0.002-0.167
		c0.003-0.055,0.018-0.104,0.045-0.151c0.028-0.045,0.077-0.082,0.146-0.11c0.072-0.026,0.173-0.042,0.307-0.042h0.6v-0.47H67.44
		v0.47h0.6c0.133,0,0.235,0.016,0.306,0.042c0.07,0.028,0.119,0.065,0.147,0.11c0.026,0.047,0.042,0.097,0.045,0.151
		s0.003,0.11,0.001,0.167v4.918c0.002,0.055,0.002,0.111-0.001,0.166c-0.003,0.056-0.019,0.105-0.045,0.152
		c-0.028,0.045-0.077,0.081-0.147,0.109c-0.071,0.027-0.173,0.042-0.306,0.042h-0.6v0.47h3.359v-0.47h-0.6
		c-0.133,0-0.235-0.015-0.307-0.042c-0.07-0.028-0.118-0.064-0.146-0.109c-0.027-0.047-0.042-0.097-0.045-0.152
		c-0.003-0.055-0.003-0.111-0.002-0.166v-2.409h3.249v2.409c0.001,0.055,0.001,0.111-0.002,0.166
		c-0.003,0.056-0.018,0.105-0.045,0.152c-0.028,0.045-0.077,0.081-0.146,0.109c-0.072,0.027-0.173,0.042-0.307,0.042h-0.6v0.47
		h3.359v-0.47h-0.6c-0.135,0-0.24-0.015-0.312-0.042c-0.072-0.028-0.122-0.064-0.15-0.109c-0.026-0.047-0.043-0.097-0.047-0.152
		c-0.001-0.055-0.003-0.111-0.001-0.166v-4.918c-0.001-0.057,0-0.112,0.001-0.167c0.003-0.055,0.021-0.104,0.047-0.151
		c0.028-0.045,0.078-0.082,0.15-0.11c0.072-0.026,0.177-0.042,0.312-0.042h0.6v-0.47h-3.359v0.47h0.6
		c0.133,0,0.235,0.016,0.307,0.042c0.07,0.028,0.118,0.065,0.146,0.11c0.027,0.047,0.042,0.097,0.045,0.151s0.003,0.11,0.002,0.167
		V25.203L72.948,25.203z"/>
	<path fill-rule="evenodd" clip-rule="evenodd" d="M90.44,26.692c-0.023,0.151-0.064,0.318-0.123,0.496
		c-0.061,0.179-0.143,0.355-0.248,0.532c-0.104,0.177-0.236,0.336-0.395,0.482s-0.346,0.264-0.566,0.352
		c-0.221,0.089-0.477,0.135-0.768,0.137c-0.297-0.002-0.553-0.052-0.771-0.149c-0.221-0.097-0.404-0.229-0.559-0.394
		c-0.152-0.163-0.277-0.348-0.377-0.552s-0.176-0.415-0.232-0.63c-0.057-0.216-0.098-0.423-0.123-0.623
		c-0.027-0.199-0.041-0.376-0.049-0.533c-0.006-0.154-0.01-0.274-0.008-0.357c0.002-0.538,0.057-0.993,0.162-1.365
		c0.107-0.371,0.254-0.669,0.439-0.895c0.184-0.227,0.396-0.39,0.635-0.491c0.236-0.1,0.488-0.149,0.752-0.148
		c0.402,0,0.742,0.082,1.02,0.245c0.275,0.162,0.504,0.399,0.68,0.713s0.312,0.696,0.41,1.151h0.49l-0.15-2.439h-0.479l-0.25,0.4
		c-0.066-0.049-0.154-0.104-0.258-0.165c-0.105-0.061-0.23-0.12-0.377-0.177c-0.145-0.057-0.314-0.104-0.504-0.14
		c-0.189-0.038-0.404-0.057-0.641-0.059c-0.416,0.002-0.791,0.064-1.131,0.187s-0.639,0.292-0.9,0.508
		c-0.26,0.219-0.48,0.47-0.656,0.757c-0.18,0.286-0.314,0.595-0.404,0.926c-0.092,0.332-0.137,0.672-0.137,1.021
		c0,0.368,0.041,0.73,0.125,1.085s0.213,0.688,0.385,1.001c0.17,0.312,0.389,0.587,0.654,0.825c0.264,0.238,0.574,0.425,0.934,0.562
		c0.361,0.135,0.77,0.203,1.23,0.206c0.186,0.002,0.387-0.013,0.6-0.048c0.213-0.033,0.428-0.099,0.645-0.193
		s0.422-0.235,0.617-0.417c0.195-0.183,0.363-0.421,0.512-0.718c0.148-0.295,0.26-0.66,0.336-1.093H90.44L90.44,26.692z"/>
	<path fill-rule="evenodd" clip-rule="evenodd" d="M97.229,25.203h-3.248v-2.039c-0.002-0.057-0.002-0.112,0-0.167
		c0.004-0.055,0.02-0.104,0.045-0.151c0.029-0.045,0.078-0.082,0.146-0.11c0.072-0.026,0.174-0.042,0.307-0.042h0.602v-0.47h-3.359
		v0.47h0.6c0.133,0,0.234,0.016,0.307,0.042c0.07,0.028,0.117,0.065,0.146,0.11c0.027,0.047,0.041,0.097,0.045,0.151
		s0.004,0.11,0.002,0.167v4.918c0.002,0.055,0.002,0.111-0.002,0.166c-0.004,0.056-0.018,0.105-0.045,0.152
		c-0.029,0.045-0.076,0.081-0.146,0.109c-0.072,0.027-0.174,0.042-0.307,0.042h-0.6v0.47h3.359v-0.47h-0.602
		c-0.133,0-0.234-0.015-0.307-0.042c-0.068-0.028-0.117-0.064-0.146-0.109c-0.025-0.047-0.041-0.097-0.045-0.152
		c-0.002-0.055-0.002-0.111,0-0.166v-2.409h3.248v2.409c0.002,0.055,0.002,0.111-0.002,0.166c-0.004,0.056-0.018,0.105-0.045,0.152
		c-0.027,0.045-0.076,0.081-0.146,0.109c-0.072,0.027-0.174,0.042-0.307,0.042h-0.6v0.47h3.359v-0.47h-0.6
		c-0.135,0-0.24-0.015-0.312-0.042c-0.072-0.028-0.121-0.064-0.15-0.109c-0.025-0.047-0.043-0.097-0.047-0.152
		c0-0.055-0.002-0.111,0-0.166v-4.918c-0.002-0.057,0-0.112,0-0.167c0.004-0.055,0.021-0.104,0.047-0.151
		c0.029-0.045,0.078-0.082,0.15-0.11c0.072-0.026,0.178-0.042,0.312-0.042h0.6v-0.47H96.13v0.47h0.6
		c0.133,0,0.234,0.016,0.307,0.042c0.07,0.028,0.119,0.065,0.146,0.11c0.027,0.047,0.041,0.097,0.045,0.151s0.004,0.11,0.002,0.167
		V25.203L97.229,25.203z"/>
	<path fill-rule="evenodd" clip-rule="evenodd" d="M102.983,29.458v0.115c0,0.139-0.016,0.252-0.043,0.34
		c-0.027,0.089-0.064,0.158-0.113,0.207c-0.047,0.049-0.102,0.084-0.162,0.105s-0.125,0.034-0.193,0.039
		c-0.066,0.005-0.133,0.007-0.199,0.006h-1.279c0.002-0.01,0.012-0.032,0.029-0.069c0.018-0.038,0.051-0.089,0.102-0.154
		c0.049-0.066,0.123-0.148,0.223-0.245c0.1-0.099,0.23-0.213,0.396-0.344c0.143-0.11,0.289-0.216,0.438-0.314
		c0.15-0.1,0.295-0.2,0.434-0.303s0.262-0.215,0.373-0.335c0.109-0.121,0.197-0.257,0.262-0.409c0.064-0.153,0.098-0.328,0.1-0.526
		c-0.002-0.178-0.029-0.332-0.08-0.465c-0.053-0.133-0.125-0.245-0.215-0.338s-0.193-0.167-0.311-0.224
		c-0.117-0.058-0.24-0.1-0.371-0.125s-0.262-0.038-0.393-0.038c-0.184,0.001-0.348,0.024-0.498,0.07s-0.281,0.108-0.396,0.188
		s-0.213,0.17-0.291,0.271c-0.08,0.102-0.139,0.208-0.182,0.32c-0.039,0.112-0.061,0.224-0.061,0.335
		c0.002,0.119,0.023,0.222,0.068,0.305c0.043,0.084,0.102,0.147,0.178,0.192c0.076,0.043,0.162,0.065,0.26,0.065
		c0.092-0.002,0.168-0.023,0.23-0.065s0.107-0.097,0.139-0.161c0.031-0.065,0.047-0.133,0.047-0.202c0-0.062-0.016-0.12-0.043-0.174
		c-0.027-0.053-0.066-0.098-0.115-0.132c-0.051-0.034-0.109-0.054-0.174-0.059c-0.021-0.001-0.045-0.003-0.066-0.005
		c-0.021,0-0.039-0.006-0.053-0.015c-0.014-0.01-0.021-0.026-0.023-0.051c0-0.051,0.02-0.106,0.055-0.172s0.088-0.129,0.16-0.192
		c0.07-0.062,0.158-0.113,0.262-0.154c0.104-0.042,0.225-0.062,0.363-0.063c0.094,0,0.188,0.016,0.277,0.048
		c0.088,0.031,0.17,0.081,0.24,0.147c0.072,0.066,0.131,0.152,0.172,0.255c0.043,0.103,0.064,0.227,0.064,0.368
		c0,0.185-0.021,0.346-0.064,0.484c-0.041,0.139-0.102,0.262-0.176,0.368c-0.074,0.107-0.164,0.205-0.264,0.295
		c-0.1,0.091-0.207,0.18-0.324,0.268c-0.115,0.088-0.234,0.182-0.359,0.281c-0.123,0.1-0.246,0.214-0.369,0.34
		c-0.123,0.127-0.242,0.273-0.355,0.442c-0.113,0.167-0.219,0.362-0.314,0.586v0.256h2.893v-1.362H102.983L102.983,29.458z"/>
	<path fill-rule="evenodd" clip-rule="evenodd" d="M144.866,26.692c-0.023,0.151-0.066,0.318-0.125,0.496
		c-0.059,0.179-0.141,0.355-0.246,0.532s-0.236,0.336-0.395,0.482s-0.346,0.264-0.566,0.352c-0.221,0.089-0.477,0.135-0.768,0.137
		c-0.297-0.002-0.553-0.052-0.771-0.149c-0.221-0.097-0.404-0.229-0.559-0.394c-0.152-0.163-0.277-0.348-0.379-0.552
		c-0.098-0.204-0.174-0.415-0.23-0.63c-0.057-0.216-0.098-0.423-0.123-0.623c-0.027-0.199-0.043-0.376-0.049-0.533
		c-0.006-0.154-0.01-0.274-0.008-0.357c0.002-0.538,0.057-0.993,0.162-1.365c0.107-0.371,0.254-0.669,0.439-0.895
		c0.184-0.227,0.396-0.39,0.635-0.491c0.236-0.1,0.488-0.149,0.752-0.148c0.402,0,0.742,0.082,1.018,0.245
		c0.277,0.162,0.506,0.399,0.68,0.713c0.178,0.313,0.314,0.696,0.412,1.151h0.49l-0.15-2.439h-0.479l-0.25,0.4
		c-0.068-0.049-0.154-0.104-0.26-0.165c-0.104-0.061-0.229-0.12-0.375-0.177s-0.314-0.104-0.504-0.14
		c-0.189-0.038-0.404-0.057-0.643-0.059c-0.414,0.002-0.791,0.064-1.129,0.187c-0.34,0.122-0.639,0.292-0.9,0.508
		c-0.26,0.219-0.48,0.47-0.656,0.757c-0.18,0.286-0.314,0.595-0.406,0.926c-0.09,0.332-0.137,0.672-0.137,1.021
		c0,0.368,0.043,0.73,0.125,1.085c0.086,0.354,0.215,0.688,0.385,1.001c0.172,0.312,0.391,0.587,0.656,0.825
		c0.262,0.238,0.574,0.425,0.934,0.562c0.359,0.135,0.77,0.203,1.23,0.206c0.186,0.002,0.387-0.013,0.6-0.048
		c0.213-0.033,0.428-0.099,0.645-0.193s0.422-0.235,0.617-0.417c0.193-0.183,0.363-0.421,0.512-0.718
		c0.146-0.295,0.258-0.66,0.336-1.093H144.866L144.866,26.692z"/>
	<path fill-rule="evenodd" clip-rule="evenodd" d="M151.655,25.203h-3.25v-2.039c0-0.057,0-0.112,0.002-0.167
		c0.004-0.055,0.02-0.104,0.045-0.151c0.029-0.045,0.078-0.082,0.146-0.11c0.072-0.026,0.174-0.042,0.307-0.042h0.6v-0.47h-3.357
		v0.47h0.6c0.133,0,0.234,0.016,0.307,0.042c0.07,0.028,0.117,0.065,0.146,0.11c0.025,0.047,0.041,0.097,0.045,0.151
		s0.004,0.11,0.002,0.167v4.918c0.002,0.055,0.002,0.111-0.002,0.166c-0.004,0.056-0.02,0.105-0.045,0.152
		c-0.029,0.045-0.076,0.081-0.146,0.109c-0.072,0.027-0.174,0.042-0.307,0.042h-0.6v0.47h3.357v-0.47h-0.6
		c-0.133,0-0.234-0.015-0.307-0.042c-0.068-0.028-0.117-0.064-0.146-0.109c-0.025-0.047-0.041-0.097-0.045-0.152
		c-0.002-0.055-0.002-0.111-0.002-0.166v-2.409h3.25v2.409c0.002,0.055,0.002,0.111-0.002,0.166
		c-0.004,0.056-0.018,0.105-0.045,0.152c-0.029,0.045-0.076,0.081-0.146,0.109c-0.072,0.027-0.174,0.042-0.307,0.042h-0.6v0.47
		h3.359v-0.47h-0.602c-0.135,0-0.238-0.015-0.311-0.042c-0.072-0.028-0.121-0.064-0.15-0.109c-0.025-0.047-0.043-0.097-0.047-0.152
		c0-0.055-0.004-0.111-0.002-0.166l0.002-4.918c-0.004-0.057-0.002-0.112,0-0.167c0.004-0.055,0.021-0.104,0.047-0.151
		c0.029-0.045,0.078-0.082,0.15-0.11c0.072-0.026,0.176-0.042,0.311-0.042h0.602v-0.47h-3.359v0.47h0.6
		c0.133,0,0.234,0.016,0.307,0.042c0.07,0.028,0.117,0.065,0.146,0.11c0.027,0.047,0.041,0.097,0.045,0.151s0.004,0.11,0.002,0.167
		V25.203L151.655,25.203z"/>
	<path fill-rule="evenodd" clip-rule="evenodd" d="M155.599,28.69h0.18c0.088-0.001,0.184,0.002,0.291,0.01s0.213,0.028,0.318,0.06
		c0.107,0.032,0.205,0.082,0.295,0.151c0.088,0.069,0.16,0.165,0.215,0.287c0.055,0.121,0.082,0.275,0.082,0.465
		c0,0.167-0.025,0.311-0.072,0.432c-0.047,0.119-0.111,0.218-0.191,0.293c-0.082,0.077-0.172,0.132-0.273,0.169
		c-0.1,0.036-0.205,0.053-0.312,0.053c-0.105-0.001-0.207-0.016-0.305-0.046c-0.098-0.029-0.186-0.067-0.264-0.114
		c-0.08-0.047-0.141-0.096-0.188-0.147c-0.045-0.052-0.068-0.101-0.07-0.146c0.002-0.034,0.014-0.06,0.039-0.079
		c0.023-0.019,0.053-0.034,0.084-0.044s0.059-0.018,0.082-0.024c0.051-0.015,0.096-0.037,0.135-0.066
		c0.041-0.03,0.072-0.067,0.096-0.111c0.025-0.043,0.037-0.093,0.039-0.148c-0.002-0.103-0.025-0.188-0.068-0.259
		c-0.045-0.07-0.104-0.124-0.174-0.16s-0.146-0.055-0.227-0.055c-0.1,0-0.191,0.028-0.273,0.082
		c-0.082,0.055-0.146,0.136-0.195,0.243s-0.072,0.24-0.074,0.398c0.002,0.111,0.033,0.225,0.1,0.339
		c0.064,0.114,0.158,0.22,0.281,0.315c0.123,0.098,0.273,0.174,0.447,0.233c0.176,0.059,0.373,0.089,0.592,0.091
		c0.164,0,0.324-0.018,0.48-0.055c0.158-0.036,0.307-0.089,0.443-0.158c0.137-0.07,0.26-0.157,0.363-0.26
		c0.105-0.103,0.188-0.221,0.248-0.353c0.059-0.134,0.09-0.28,0.09-0.441c0-0.167-0.033-0.314-0.096-0.445s-0.146-0.243-0.252-0.336
		c-0.105-0.095-0.225-0.169-0.357-0.225c-0.131-0.056-0.268-0.092-0.408-0.107v-0.038c0.129-0.024,0.256-0.065,0.375-0.124
		c0.121-0.058,0.23-0.13,0.326-0.218c0.098-0.088,0.172-0.189,0.229-0.304c0.059-0.115,0.088-0.241,0.088-0.379
		c0-0.098-0.02-0.198-0.057-0.3s-0.096-0.199-0.17-0.293c-0.078-0.094-0.174-0.178-0.289-0.251c-0.115-0.075-0.25-0.134-0.406-0.177
		s-0.334-0.065-0.531-0.066c-0.18,0.001-0.35,0.025-0.51,0.076c-0.158,0.051-0.297,0.122-0.42,0.214
		c-0.121,0.092-0.219,0.201-0.287,0.327c-0.07,0.127-0.105,0.267-0.107,0.419c0.002,0.087,0.025,0.162,0.068,0.224
		c0.045,0.062,0.104,0.11,0.174,0.143c0.07,0.033,0.146,0.05,0.227,0.05c0.076-0.001,0.143-0.014,0.193-0.039
		c0.053-0.026,0.094-0.058,0.125-0.095c0.031-0.038,0.053-0.075,0.064-0.112c0.014-0.038,0.02-0.068,0.02-0.093
		c0-0.04-0.004-0.082-0.012-0.13s-0.025-0.095-0.053-0.141s-0.066-0.085-0.121-0.12c-0.02-0.011-0.039-0.021-0.061-0.031
		c-0.021-0.009-0.037-0.021-0.051-0.031c-0.016-0.012-0.021-0.025-0.023-0.04c0-0.025,0.018-0.056,0.053-0.091
		c0.033-0.035,0.082-0.07,0.146-0.105s0.141-0.063,0.23-0.087c0.088-0.023,0.189-0.035,0.301-0.036
		c0.021-0.002,0.061,0.003,0.117,0.012c0.059,0.008,0.121,0.026,0.193,0.055c0.074,0.028,0.145,0.07,0.211,0.129
		c0.068,0.056,0.125,0.133,0.17,0.229c0.045,0.098,0.068,0.218,0.068,0.362c0,0.147-0.025,0.274-0.074,0.379
		s-0.111,0.192-0.191,0.261s-0.166,0.124-0.262,0.165c-0.096,0.04-0.189,0.07-0.285,0.09s-0.184,0.032-0.262,0.039
		c-0.08,0.005-0.145,0.009-0.191,0.007h-0.115V28.69L155.599,28.69z"/>
	<path fill-rule="evenodd" clip-rule="evenodd" d="M66.25,9.698c-0.023,0.151-0.065,0.318-0.124,0.497
		c-0.06,0.178-0.141,0.354-0.247,0.531c-0.105,0.177-0.236,0.336-0.395,0.483s-0.347,0.264-0.566,0.352
		c-0.222,0.088-0.477,0.135-0.769,0.137c-0.296-0.002-0.553-0.052-0.771-0.15c-0.22-0.097-0.405-0.228-0.558-0.393
		c-0.153-0.164-0.278-0.348-0.378-0.551c-0.098-0.205-0.175-0.415-0.231-0.63c-0.057-0.217-0.098-0.423-0.124-0.623
		c-0.026-0.2-0.042-0.376-0.048-0.533c-0.007-0.155-0.01-0.275-0.009-0.358c0.002-0.538,0.057-0.993,0.164-1.364
		c0.106-0.372,0.253-0.67,0.438-0.895c0.185-0.227,0.396-0.39,0.635-0.491c0.237-0.1,0.488-0.15,0.753-0.148
		c0.401,0,0.741,0.082,1.018,0.245c0.277,0.162,0.505,0.399,0.68,0.713c0.177,0.313,0.313,0.696,0.412,1.151h0.49l-0.15-2.439h-0.48
		l-0.25,0.4c-0.067-0.048-0.153-0.103-0.258-0.165c-0.105-0.06-0.23-0.12-0.376-0.177c-0.145-0.057-0.313-0.104-0.503-0.14
		c-0.19-0.038-0.405-0.057-0.642-0.058c-0.415,0.001-0.791,0.065-1.129,0.187c-0.34,0.122-0.64,0.292-0.901,0.508
		c-0.26,0.218-0.48,0.47-0.657,0.756c-0.178,0.287-0.313,0.595-0.405,0.927c-0.09,0.332-0.137,0.671-0.137,1.021
		c0,0.368,0.042,0.73,0.125,1.084c0.085,0.355,0.213,0.688,0.385,1.002c0.172,0.311,0.39,0.586,0.655,0.824
		c0.263,0.239,0.575,0.425,0.935,0.562c0.36,0.135,0.77,0.204,1.229,0.207c0.187,0.002,0.387-0.013,0.6-0.048
		c0.213-0.033,0.428-0.098,0.645-0.193c0.216-0.095,0.421-0.234,0.616-0.416c0.195-0.183,0.365-0.422,0.513-0.718
		c0.147-0.295,0.258-0.66,0.335-1.093H66.25L66.25,9.698z"/>
	<path fill-rule="evenodd" clip-rule="evenodd" d="M73.04,8.208h-3.249V6.169c-0.001-0.057-0.001-0.112,0.002-0.167
		c0.003-0.055,0.018-0.105,0.045-0.152c0.028-0.045,0.077-0.082,0.146-0.11c0.072-0.027,0.173-0.042,0.307-0.042h0.6v-0.47h-3.359
		v0.47h0.6c0.133,0,0.235,0.015,0.306,0.042c0.07,0.028,0.119,0.065,0.147,0.11c0.026,0.047,0.042,0.097,0.045,0.152
		c0.003,0.055,0.003,0.11,0.001,0.167v4.918c0.002,0.055,0.002,0.112-0.001,0.167c-0.003,0.055-0.019,0.104-0.045,0.151
		c-0.028,0.045-0.077,0.082-0.147,0.11c-0.071,0.027-0.173,0.042-0.306,0.042h-0.6v0.47h3.359v-0.47h-0.6
		c-0.133,0-0.235-0.015-0.307-0.042c-0.07-0.028-0.118-0.065-0.146-0.11c-0.027-0.047-0.042-0.097-0.045-0.151
		c-0.003-0.055-0.003-0.112-0.002-0.167V8.678h3.249v2.409c0.001,0.055,0.001,0.112-0.002,0.167
		c-0.003,0.055-0.018,0.104-0.045,0.151c-0.028,0.045-0.077,0.082-0.146,0.11c-0.072,0.027-0.173,0.042-0.307,0.042h-0.6v0.47h3.359
		v-0.47h-0.6c-0.135,0-0.24-0.015-0.312-0.042c-0.072-0.028-0.122-0.065-0.15-0.11c-0.026-0.047-0.043-0.097-0.047-0.151
		c-0.001-0.055-0.003-0.112-0.001-0.167V6.169c-0.002-0.057,0-0.112,0.001-0.167c0.003-0.055,0.021-0.105,0.047-0.152
		c0.028-0.045,0.078-0.082,0.15-0.11c0.072-0.027,0.177-0.042,0.312-0.042h0.6v-0.47H71.94v0.47h0.6
		c0.133,0,0.235,0.015,0.307,0.042c0.07,0.028,0.118,0.065,0.146,0.11c0.027,0.047,0.042,0.097,0.045,0.152
		c0.003,0.055,0.003,0.11,0.002,0.167V8.208L73.04,8.208z"/>
	<path fill-rule="evenodd" clip-rule="evenodd" d="M76.983,11.696h0.179c0.088-0.001,0.185,0.002,0.292,0.009
		c0.106,0.009,0.213,0.029,0.319,0.06c0.106,0.032,0.205,0.082,0.294,0.151c0.089,0.069,0.16,0.165,0.215,0.287
		c0.054,0.122,0.082,0.276,0.083,0.465c-0.001,0.167-0.025,0.311-0.073,0.432c-0.047,0.12-0.111,0.218-0.192,0.293
		c-0.081,0.077-0.172,0.132-0.273,0.168c-0.1,0.037-0.205,0.053-0.313,0.053c-0.104-0.001-0.207-0.016-0.304-0.046
		c-0.098-0.03-0.187-0.067-0.265-0.114c-0.079-0.047-0.141-0.096-0.187-0.148c-0.046-0.051-0.069-0.101-0.07-0.146
		c0.001-0.034,0.014-0.06,0.038-0.079c0.025-0.02,0.054-0.034,0.085-0.044c0.031-0.011,0.059-0.018,0.081-0.024
		c0.05-0.015,0.095-0.037,0.136-0.067c0.041-0.03,0.072-0.067,0.096-0.111c0.024-0.042,0.036-0.093,0.038-0.148
		c-0.001-0.103-0.025-0.189-0.068-0.259c-0.045-0.07-0.103-0.124-0.173-0.16c-0.07-0.036-0.146-0.054-0.226-0.054
		c-0.101,0-0.193,0.028-0.275,0.082c-0.081,0.055-0.146,0.136-0.194,0.243c-0.049,0.107-0.073,0.24-0.075,0.398
		c0.001,0.112,0.033,0.225,0.1,0.339c0.064,0.114,0.159,0.22,0.282,0.315c0.123,0.097,0.272,0.174,0.447,0.234
		c0.175,0.059,0.372,0.088,0.592,0.09c0.163,0,0.324-0.018,0.481-0.054s0.305-0.089,0.442-0.159
		c0.138-0.071,0.259-0.157,0.364-0.259c0.105-0.103,0.188-0.221,0.247-0.353c0.06-0.133,0.09-0.28,0.091-0.441
		c-0.001-0.167-0.033-0.314-0.096-0.446c-0.062-0.13-0.146-0.243-0.252-0.335c-0.105-0.094-0.225-0.169-0.357-0.224
		c-0.131-0.056-0.268-0.092-0.409-0.108v-0.038c0.129-0.025,0.255-0.065,0.375-0.124c0.121-0.058,0.229-0.13,0.325-0.217
		c0.097-0.088,0.173-0.19,0.229-0.304c0.058-0.116,0.087-0.241,0.088-0.379c0-0.098-0.02-0.198-0.057-0.3
		c-0.037-0.102-0.095-0.199-0.171-0.293c-0.077-0.094-0.172-0.178-0.288-0.251c-0.116-0.075-0.252-0.133-0.407-0.177
		c-0.157-0.042-0.333-0.065-0.53-0.066c-0.18,0.001-0.35,0.025-0.51,0.077c-0.159,0.05-0.298,0.122-0.421,0.213
		C76.596,9.77,76.5,9.878,76.43,10.004c-0.07,0.127-0.105,0.267-0.106,0.419c0.001,0.087,0.024,0.163,0.068,0.224
		c0.045,0.062,0.102,0.11,0.172,0.142c0.071,0.033,0.146,0.05,0.227,0.05c0.078-0.001,0.143-0.014,0.195-0.039
		c0.052-0.026,0.094-0.057,0.124-0.094c0.031-0.039,0.052-0.076,0.065-0.113c0.013-0.038,0.019-0.068,0.019-0.093
		c0.001-0.04-0.003-0.082-0.011-0.13c-0.008-0.047-0.026-0.094-0.053-0.14s-0.067-0.085-0.122-0.121
		c-0.02-0.011-0.04-0.021-0.061-0.031c-0.021-0.01-0.038-0.021-0.051-0.032c-0.015-0.012-0.021-0.025-0.022-0.04
		c0-0.026,0.018-0.056,0.052-0.091s0.083-0.07,0.147-0.105s0.141-0.064,0.229-0.087c0.089-0.023,0.189-0.035,0.3-0.037
		c0.022-0.001,0.062,0.003,0.119,0.012c0.058,0.008,0.122,0.026,0.194,0.055c0.073,0.028,0.143,0.07,0.21,0.128
		c0.068,0.057,0.125,0.133,0.17,0.229c0.044,0.098,0.068,0.218,0.069,0.363c-0.001,0.147-0.025,0.274-0.075,0.379
		c-0.048,0.104-0.112,0.192-0.191,0.26c-0.08,0.069-0.167,0.125-0.262,0.165c-0.095,0.041-0.19,0.07-0.286,0.09
		c-0.095,0.02-0.183,0.032-0.262,0.039c-0.08,0.005-0.144,0.009-0.192,0.007h-0.115V11.696L76.983,11.696z"/>
	<line stroke="#000000" stroke-width="0.5995" stroke-miterlimit="22.9256" x1="104.147" y1="25.223" x2="111.747" y2="25.223"/>
	<path fill-rule="evenodd" clip-rule="evenodd" d="M119.616,26.692c-0.023,0.151-0.064,0.318-0.123,0.496
		c-0.059,0.179-0.141,0.355-0.246,0.532s-0.236,0.336-0.395,0.482s-0.348,0.264-0.566,0.352c-0.223,0.089-0.477,0.135-0.768,0.137
		c-0.297-0.002-0.555-0.052-0.771-0.149c-0.221-0.097-0.406-0.229-0.559-0.394c-0.154-0.163-0.279-0.348-0.379-0.552
		c-0.098-0.204-0.174-0.415-0.23-0.63c-0.057-0.216-0.1-0.423-0.123-0.623c-0.027-0.199-0.043-0.376-0.049-0.533
		c-0.008-0.154-0.01-0.274-0.01-0.357c0.002-0.538,0.059-0.993,0.164-1.365c0.107-0.371,0.254-0.669,0.438-0.895
		c0.186-0.227,0.398-0.39,0.635-0.491c0.238-0.1,0.488-0.149,0.754-0.148c0.402,0,0.742,0.082,1.018,0.245
		c0.277,0.162,0.506,0.399,0.68,0.713c0.178,0.313,0.314,0.696,0.412,1.151h0.49l-0.15-2.439h-0.48l-0.25,0.4
		c-0.066-0.049-0.152-0.104-0.258-0.165c-0.105-0.061-0.23-0.12-0.377-0.177c-0.145-0.057-0.312-0.104-0.502-0.14
		c-0.191-0.038-0.406-0.057-0.643-0.059c-0.414,0.002-0.791,0.064-1.129,0.187c-0.34,0.122-0.641,0.292-0.9,0.508
		c-0.262,0.219-0.48,0.47-0.658,0.757c-0.178,0.286-0.312,0.595-0.404,0.926c-0.09,0.332-0.137,0.672-0.137,1.021
		c0,0.368,0.043,0.73,0.125,1.085c0.086,0.354,0.213,0.688,0.385,1.001c0.172,0.312,0.391,0.587,0.654,0.825
		s0.576,0.425,0.936,0.562c0.359,0.135,0.77,0.203,1.23,0.206c0.186,0.002,0.385-0.013,0.6-0.048
		c0.213-0.033,0.428-0.099,0.645-0.193s0.422-0.235,0.615-0.417c0.195-0.183,0.365-0.421,0.514-0.718
		c0.146-0.295,0.258-0.66,0.336-1.093H119.616L119.616,26.692z"/>
	<path fill-rule="evenodd" clip-rule="evenodd" d="M126.405,25.203h-3.248v-2.039c-0.002-0.057-0.002-0.112,0.002-0.167
		s0.018-0.104,0.045-0.151c0.027-0.045,0.076-0.082,0.146-0.11c0.072-0.026,0.174-0.042,0.307-0.042h0.6v-0.47h-3.359v0.47h0.6
		c0.135,0,0.236,0.016,0.307,0.042c0.07,0.028,0.119,0.065,0.146,0.11c0.027,0.047,0.043,0.097,0.045,0.151
		c0.004,0.055,0.004,0.11,0.002,0.167v4.918c0.002,0.055,0.002,0.111-0.002,0.166c-0.002,0.056-0.018,0.105-0.045,0.152
		c-0.027,0.045-0.076,0.081-0.146,0.109c-0.07,0.027-0.172,0.042-0.307,0.042h-0.6v0.47h3.359v-0.47h-0.6
		c-0.133,0-0.234-0.015-0.307-0.042c-0.07-0.028-0.119-0.064-0.146-0.109c-0.027-0.047-0.041-0.097-0.045-0.152
		c-0.004-0.055-0.004-0.111-0.002-0.166v-2.409h3.248v2.409c0.002,0.055,0.002,0.111,0,0.166c-0.004,0.056-0.02,0.105-0.045,0.152
		c-0.029,0.045-0.078,0.081-0.146,0.109c-0.072,0.027-0.174,0.042-0.307,0.042h-0.6v0.47h3.357v-0.47h-0.6
		c-0.135,0-0.24-0.015-0.311-0.042c-0.072-0.028-0.123-0.064-0.15-0.109c-0.027-0.047-0.043-0.097-0.047-0.152
		c-0.002-0.055-0.004-0.111-0.002-0.166v-4.918c-0.002-0.057,0-0.112,0.002-0.167c0.004-0.055,0.02-0.104,0.047-0.151
		c0.027-0.045,0.078-0.082,0.15-0.11c0.07-0.026,0.176-0.042,0.311-0.042h0.6v-0.47h-3.357v0.47h0.6
		c0.133,0,0.234,0.016,0.307,0.042c0.068,0.028,0.117,0.065,0.146,0.11c0.025,0.047,0.041,0.097,0.045,0.151
		c0.002,0.055,0.002,0.11,0,0.167V25.203L126.405,25.203z"/>
	<line stroke="#000000" stroke-width="0.5995" stroke-miterlimit="22.9256" x1="117.22" y1="20.424" x2="117.22" y2="13.627"/>
	<path fill-rule="evenodd" clip-rule="evenodd" d="M119.708,9.698c-0.023,0.151-0.064,0.318-0.123,0.497
		c-0.061,0.178-0.143,0.354-0.246,0.531c-0.105,0.177-0.236,0.336-0.396,0.483c-0.158,0.146-0.346,0.264-0.566,0.352
		c-0.221,0.088-0.477,0.135-0.768,0.137c-0.297-0.002-0.553-0.052-0.771-0.15c-0.219-0.097-0.404-0.228-0.559-0.393
		c-0.152-0.164-0.277-0.348-0.377-0.551c-0.1-0.205-0.176-0.415-0.232-0.63c-0.057-0.217-0.098-0.423-0.123-0.623
		c-0.027-0.2-0.041-0.376-0.049-0.533c-0.006-0.155-0.01-0.275-0.008-0.358c0.002-0.538,0.057-0.993,0.164-1.364
		c0.105-0.372,0.252-0.67,0.438-0.895c0.186-0.227,0.396-0.39,0.635-0.491c0.236-0.1,0.488-0.15,0.754-0.148
		c0.4,0,0.74,0.082,1.018,0.245c0.275,0.162,0.504,0.399,0.68,0.713c0.176,0.313,0.312,0.696,0.412,1.151h0.488l-0.148-2.439h-0.48
		l-0.25,0.4c-0.066-0.048-0.154-0.103-0.258-0.165c-0.105-0.06-0.23-0.12-0.377-0.177c-0.145-0.057-0.312-0.104-0.504-0.14
		c-0.189-0.038-0.404-0.057-0.641-0.058c-0.414,0.001-0.791,0.065-1.129,0.187c-0.342,0.122-0.641,0.292-0.902,0.508
		c-0.26,0.218-0.48,0.47-0.656,0.756c-0.178,0.287-0.312,0.595-0.404,0.927c-0.09,0.332-0.137,0.671-0.137,1.021
		c0,0.368,0.041,0.73,0.125,1.084c0.084,0.355,0.213,0.688,0.385,1.002c0.172,0.311,0.389,0.586,0.654,0.824
		c0.264,0.239,0.574,0.425,0.936,0.562c0.359,0.135,0.77,0.204,1.229,0.207c0.188,0.002,0.387-0.013,0.6-0.048
		c0.213-0.033,0.428-0.098,0.645-0.193c0.217-0.095,0.422-0.234,0.617-0.416c0.195-0.183,0.365-0.422,0.514-0.718
		c0.146-0.295,0.258-0.66,0.334-1.093H119.708L119.708,9.698z"/>
	<path fill-rule="evenodd" clip-rule="evenodd" d="M126.497,8.208h-3.248V6.169c-0.002-0.057-0.002-0.112,0.002-0.167
		c0.002-0.055,0.018-0.105,0.045-0.152c0.027-0.045,0.076-0.082,0.146-0.11c0.07-0.027,0.172-0.042,0.307-0.042h0.6v-0.47h-3.359
		v0.47h0.6c0.133,0,0.234,0.015,0.307,0.042c0.07,0.028,0.119,0.065,0.146,0.11c0.027,0.047,0.041,0.097,0.045,0.152
		c0.004,0.055,0.004,0.11,0.002,0.167v4.918c0.002,0.055,0.002,0.112-0.002,0.167c-0.004,0.055-0.018,0.104-0.045,0.151
		c-0.027,0.045-0.076,0.082-0.146,0.11c-0.072,0.027-0.174,0.042-0.307,0.042h-0.6v0.47h3.359v-0.47h-0.6
		c-0.135,0-0.236-0.015-0.307-0.042c-0.07-0.028-0.119-0.065-0.146-0.11c-0.027-0.047-0.043-0.097-0.045-0.151
		c-0.004-0.055-0.004-0.112-0.002-0.167V8.678h3.248v2.409c0.002,0.055,0.002,0.112-0.002,0.167
		c-0.002,0.055-0.018,0.104-0.045,0.151c-0.027,0.045-0.076,0.082-0.146,0.11c-0.07,0.027-0.172,0.042-0.307,0.042h-0.6v0.47h3.359
		v-0.47h-0.6c-0.135,0-0.24-0.015-0.312-0.042c-0.07-0.028-0.121-0.065-0.148-0.11c-0.027-0.047-0.045-0.097-0.047-0.151
		c-0.002-0.055-0.004-0.112-0.002-0.167V6.169c-0.002-0.057,0-0.112,0.002-0.167c0.002-0.055,0.02-0.105,0.047-0.152
		c0.027-0.045,0.078-0.082,0.148-0.11c0.072-0.027,0.178-0.042,0.312-0.042h0.6v-0.47h-3.359v0.47h0.6
		c0.135,0,0.236,0.015,0.307,0.042c0.07,0.028,0.119,0.065,0.146,0.11c0.027,0.047,0.043,0.097,0.045,0.152
		c0.004,0.055,0.004,0.11,0.002,0.167V8.208L126.497,8.208z"/>
	<path fill-rule="evenodd" clip-rule="evenodd" d="M130.44,11.696h0.18c0.088-0.001,0.186,0.002,0.293,0.009
		c0.105,0.009,0.213,0.029,0.318,0.06c0.105,0.032,0.205,0.082,0.293,0.151c0.09,0.069,0.16,0.165,0.215,0.287
		s0.082,0.276,0.084,0.465c-0.002,0.167-0.025,0.311-0.072,0.432c-0.047,0.12-0.111,0.218-0.193,0.293
		c-0.08,0.077-0.172,0.132-0.271,0.168c-0.102,0.037-0.205,0.053-0.314,0.053c-0.104-0.001-0.207-0.016-0.305-0.046
		c-0.098-0.03-0.186-0.067-0.264-0.114s-0.141-0.096-0.186-0.148c-0.047-0.051-0.07-0.101-0.07-0.146
		c0-0.034,0.014-0.06,0.037-0.079c0.025-0.02,0.053-0.034,0.086-0.044c0.031-0.011,0.059-0.018,0.08-0.024
		c0.051-0.015,0.096-0.037,0.137-0.067c0.039-0.03,0.072-0.067,0.096-0.111c0.023-0.042,0.035-0.093,0.037-0.148
		c-0.002-0.103-0.025-0.189-0.068-0.259c-0.045-0.07-0.102-0.124-0.172-0.16c-0.072-0.036-0.146-0.054-0.227-0.054
		c-0.102,0-0.193,0.028-0.275,0.082c-0.082,0.055-0.146,0.136-0.193,0.243c-0.051,0.107-0.074,0.24-0.076,0.398
		c0.002,0.112,0.033,0.225,0.1,0.339c0.064,0.114,0.158,0.22,0.283,0.315c0.123,0.097,0.271,0.174,0.447,0.234
		c0.174,0.059,0.371,0.088,0.59,0.09c0.164,0,0.324-0.018,0.482-0.054c0.156-0.036,0.305-0.089,0.441-0.159
		c0.139-0.071,0.26-0.157,0.365-0.259s0.188-0.221,0.246-0.353c0.061-0.133,0.09-0.28,0.092-0.441
		c-0.002-0.167-0.033-0.314-0.098-0.446c-0.061-0.13-0.145-0.243-0.25-0.335c-0.107-0.094-0.227-0.169-0.357-0.224
		c-0.131-0.056-0.268-0.092-0.408-0.108v-0.038c0.129-0.025,0.254-0.065,0.375-0.124c0.119-0.058,0.229-0.13,0.324-0.217
		c0.098-0.088,0.174-0.19,0.23-0.304c0.057-0.116,0.086-0.241,0.086-0.379c0-0.098-0.018-0.198-0.057-0.3
		c-0.037-0.102-0.094-0.199-0.17-0.293c-0.076-0.094-0.172-0.178-0.287-0.251c-0.117-0.075-0.252-0.133-0.408-0.177
		c-0.156-0.042-0.332-0.065-0.529-0.066c-0.182,0.001-0.35,0.025-0.51,0.077c-0.158,0.05-0.299,0.122-0.422,0.213
		c-0.121,0.093-0.217,0.202-0.287,0.327c-0.07,0.127-0.105,0.267-0.105,0.419c0,0.087,0.023,0.163,0.068,0.224
		c0.045,0.062,0.102,0.11,0.172,0.142c0.07,0.033,0.146,0.05,0.227,0.05c0.078-0.001,0.143-0.014,0.195-0.039
		c0.051-0.026,0.094-0.057,0.123-0.094c0.031-0.039,0.053-0.076,0.064-0.113c0.014-0.038,0.02-0.068,0.02-0.093
		c0.002-0.04-0.002-0.082-0.01-0.13c-0.01-0.047-0.027-0.094-0.055-0.14c-0.025-0.046-0.066-0.085-0.121-0.121
		c-0.02-0.011-0.039-0.021-0.061-0.031c-0.02-0.01-0.037-0.021-0.051-0.032c-0.016-0.012-0.021-0.025-0.023-0.04
		c0-0.026,0.02-0.056,0.053-0.091c0.035-0.035,0.084-0.07,0.148-0.105c0.062-0.035,0.141-0.064,0.229-0.087
		c0.09-0.023,0.189-0.035,0.301-0.037c0.021-0.001,0.062,0.003,0.119,0.012c0.057,0.008,0.121,0.026,0.193,0.055
		c0.072,0.028,0.143,0.07,0.209,0.128c0.068,0.057,0.125,0.133,0.17,0.229c0.045,0.098,0.068,0.218,0.07,0.363
		c-0.002,0.147-0.025,0.274-0.074,0.379c-0.049,0.104-0.113,0.192-0.191,0.26c-0.08,0.069-0.168,0.125-0.264,0.165
		c-0.094,0.041-0.189,0.07-0.285,0.09c-0.094,0.02-0.182,0.032-0.262,0.039c-0.08,0.005-0.143,0.009-0.191,0.007h-0.115V11.696
		L130.44,11.696z"/>
</g>
</svg>
