<?xml version="1.0" encoding="utf-8"?>
<!-- Generator: Adobe Illustrator 16.0.0, SVG Export Plug-In . SVG Version: 6.00 Build 0)  -->
<!DOCTYPE svg PUBLIC "-//W3C//DTD SVG 1.1//EN" "http://www.w3.org/Graphics/SVG/1.1/DTD/svg11.dtd">
<svg version="1.1" id="Layer_1" xmlns="http://www.w3.org/2000/svg" xmlns:xlink="http://www.w3.org/1999/xlink" x="0px" y="0px"
	 width="137px" height="36px" viewBox="0 0 137 36" enable-background="new 0 0 137 36" xml:space="preserve">
<line stroke="#000000" stroke-width="0.5995" stroke-miterlimit="22.9256" x1="75.47" y1="8.418" x2="83.07" y2="8.418"/>
<line stroke="#000000" stroke-width="0.5995" stroke-miterlimit="22.9256" x1="50.508" y1="8.418" x2="58.108" y2="8.418"/>
<line stroke="#000000" stroke-width="0.5995" stroke-miterlimit="22.9256" x1="25.015" y1="8.418" x2="32.614" y2="8.418"/>
<path d="M10.904,9.887c-0.022,0.151-0.064,0.318-0.123,0.496c-0.06,0.18-0.142,0.355-0.247,0.533
	c-0.104,0.176-0.235,0.336-0.395,0.481c-0.158,0.146-0.346,0.264-0.566,0.353c-0.222,0.088-0.477,0.135-0.768,0.137
	c-0.296-0.002-0.553-0.053-0.771-0.149c-0.22-0.097-0.404-0.229-0.558-0.394c-0.154-0.164-0.278-0.348-0.379-0.551
	c-0.1-0.205-0.175-0.416-0.232-0.631C6.809,9.946,6.768,9.739,6.742,9.539C6.716,9.34,6.7,9.163,6.694,9.006
	c-0.007-0.153-0.01-0.273-0.008-0.356C6.688,8.111,6.743,7.656,6.85,7.284c0.105-0.371,0.253-0.669,0.438-0.896
	C7.473,6.162,7.684,6,7.922,5.898c0.236-0.1,0.487-0.148,0.753-0.148c0.4,0,0.74,0.082,1.018,0.245
	c0.276,0.162,0.505,0.399,0.68,0.714c0.177,0.312,0.313,0.695,0.412,1.15h0.49l-0.15-2.439h-0.479l-0.25,0.4
	c-0.067-0.049-0.154-0.104-0.258-0.165c-0.105-0.062-0.23-0.12-0.377-0.177C9.614,5.422,9.446,5.375,9.257,5.338
	c-0.19-0.037-0.405-0.057-0.643-0.059c-0.415,0.002-0.791,0.064-1.13,0.188c-0.34,0.121-0.64,0.291-0.901,0.508
	c-0.26,0.219-0.479,0.47-0.656,0.757C5.748,7.018,5.613,7.326,5.521,7.657c-0.09,0.332-0.136,0.672-0.136,1.021
	c0,0.369,0.042,0.73,0.125,1.086c0.084,0.354,0.213,0.688,0.384,1c0.172,0.312,0.39,0.588,0.655,0.826
	c0.264,0.237,0.574,0.424,0.935,0.562c0.36,0.135,0.771,0.203,1.23,0.206c0.187,0.002,0.387-0.014,0.6-0.048
	c0.213-0.033,0.428-0.099,0.645-0.193s0.422-0.235,0.616-0.417c0.195-0.184,0.365-0.421,0.514-0.718
	c0.146-0.295,0.258-0.66,0.335-1.093h-0.52V9.887z"/>
<path d="M17.694,8.398h-3.249V6.359c-0.001-0.057-0.001-0.112,0.002-0.167c0.003-0.056,0.019-0.104,0.044-0.151
	c0.028-0.045,0.077-0.082,0.146-0.109c0.071-0.026,0.174-0.043,0.307-0.043h0.601V5.42h-3.359v0.469h0.6
	c0.134,0,0.234,0.017,0.307,0.043c0.069,0.027,0.117,0.064,0.146,0.109c0.027,0.047,0.042,0.098,0.045,0.151s0.003,0.11,0.001,0.167
	v4.918c0.002,0.055,0.002,0.111-0.001,0.166c-0.003,0.057-0.019,0.105-0.045,0.152c-0.028,0.045-0.076,0.08-0.146,0.108
	c-0.072,0.027-0.173,0.042-0.307,0.042h-0.6v0.471h3.359v-0.471h-0.601c-0.133,0-0.235-0.015-0.307-0.042
	c-0.069-0.028-0.118-0.063-0.146-0.108c-0.025-0.047-0.042-0.098-0.044-0.152c-0.003-0.055-0.003-0.111-0.002-0.166V8.868h3.249
	v2.409c0.001,0.055,0.001,0.111-0.002,0.166c-0.003,0.057-0.019,0.105-0.045,0.152c-0.028,0.045-0.077,0.08-0.146,0.108
	c-0.072,0.027-0.174,0.042-0.308,0.042h-0.6v0.471h3.358v-0.471h-0.6c-0.135,0-0.24-0.015-0.312-0.042
	c-0.071-0.028-0.121-0.063-0.149-0.108c-0.027-0.047-0.043-0.098-0.047-0.152c-0.001-0.055-0.003-0.111-0.001-0.166V6.359
	c-0.002-0.057,0-0.112,0.001-0.167c0.003-0.056,0.02-0.104,0.047-0.151c0.028-0.045,0.078-0.082,0.149-0.109
	c0.071-0.026,0.178-0.043,0.312-0.043h0.6V5.42h-3.358v0.469h0.6c0.133,0,0.235,0.017,0.308,0.043
	c0.069,0.027,0.117,0.064,0.146,0.109c0.026,0.047,0.042,0.098,0.045,0.151s0.003,0.11,0.002,0.167V8.398L17.694,8.398z"/>
<path d="M21.638,11.885h0.179c0.089,0,0.187,0.002,0.292,0.011c0.106,0.008,0.213,0.028,0.318,0.06
	c0.106,0.032,0.205,0.082,0.294,0.151s0.16,0.165,0.215,0.287c0.054,0.12,0.082,0.274,0.083,0.465
	c-0.001,0.167-0.026,0.312-0.073,0.433c-0.047,0.118-0.111,0.217-0.191,0.293c-0.081,0.076-0.173,0.131-0.273,0.168
	c-0.1,0.036-0.205,0.053-0.313,0.053c-0.104,0-0.206-0.016-0.304-0.045s-0.187-0.067-0.264-0.114
	c-0.079-0.048-0.142-0.097-0.188-0.147s-0.068-0.101-0.069-0.146c0.001-0.034,0.014-0.06,0.038-0.079s0.053-0.034,0.085-0.044
	c0.03-0.011,0.059-0.019,0.081-0.024c0.05-0.015,0.095-0.037,0.136-0.066s0.072-0.066,0.096-0.11
	c0.024-0.043,0.036-0.093,0.037-0.147c-0.001-0.104-0.024-0.188-0.068-0.26c-0.044-0.07-0.102-0.124-0.172-0.16
	c-0.07-0.035-0.146-0.055-0.226-0.055c-0.103,0-0.193,0.027-0.275,0.082c-0.081,0.055-0.146,0.137-0.193,0.243
	c-0.05,0.106-0.074,0.239-0.075,0.397c0.001,0.111,0.033,0.226,0.099,0.34c0.065,0.113,0.159,0.22,0.283,0.314
	c0.123,0.098,0.271,0.174,0.447,0.232c0.175,0.06,0.372,0.09,0.592,0.092c0.163,0,0.324-0.018,0.48-0.055
	c0.157-0.037,0.306-0.09,0.442-0.158c0.138-0.07,0.259-0.157,0.364-0.26c0.104-0.104,0.188-0.222,0.247-0.354
	c0.06-0.134,0.09-0.279,0.091-0.441c-0.001-0.166-0.033-0.313-0.096-0.444c-0.062-0.132-0.146-0.243-0.252-0.337
	s-0.226-0.168-0.357-0.225c-0.131-0.056-0.268-0.092-0.409-0.106v-0.038c0.129-0.023,0.255-0.064,0.375-0.124
	c0.12-0.058,0.229-0.13,0.325-0.218c0.097-0.088,0.173-0.189,0.229-0.305c0.059-0.115,0.087-0.24,0.089-0.379
	c0-0.098-0.021-0.197-0.058-0.3c-0.038-0.103-0.095-0.198-0.171-0.293c-0.077-0.094-0.172-0.178-0.288-0.251
	c-0.116-0.075-0.252-0.134-0.407-0.177c-0.156-0.044-0.333-0.065-0.529-0.066c-0.181,0.001-0.351,0.025-0.511,0.076
	c-0.158,0.051-0.298,0.122-0.421,0.214c-0.122,0.092-0.218,0.201-0.287,0.327c-0.069,0.127-0.104,0.267-0.105,0.419
	c0.001,0.087,0.024,0.162,0.068,0.225c0.044,0.062,0.102,0.109,0.172,0.143s0.146,0.05,0.226,0.05
	c0.078-0.001,0.144-0.015,0.195-0.039c0.052-0.026,0.094-0.058,0.124-0.095c0.031-0.038,0.052-0.075,0.063-0.112
	c0.014-0.038,0.021-0.067,0.021-0.093c0.001-0.04-0.003-0.082-0.011-0.13c-0.01-0.048-0.027-0.095-0.054-0.142
	c-0.026-0.045-0.066-0.084-0.122-0.119c-0.021-0.012-0.04-0.021-0.061-0.031c-0.021-0.01-0.038-0.021-0.052-0.031
	c-0.016-0.012-0.021-0.025-0.022-0.04c0-0.024,0.019-0.056,0.052-0.091c0.034-0.035,0.083-0.07,0.147-0.105
	c0.063-0.035,0.141-0.062,0.229-0.086c0.091-0.023,0.19-0.035,0.302-0.037c0.021-0.002,0.062,0.004,0.118,0.012
	c0.059,0.009,0.122,0.027,0.194,0.056c0.073,0.028,0.144,0.069,0.21,0.129c0.068,0.056,0.125,0.134,0.169,0.229
	c0.045,0.098,0.068,0.218,0.07,0.361c-0.001,0.147-0.026,0.274-0.075,0.379c-0.048,0.104-0.112,0.192-0.191,0.262
	c-0.079,0.068-0.167,0.123-0.262,0.164s-0.189,0.07-0.286,0.091c-0.095,0.02-0.182,0.032-0.261,0.038
	c-0.08,0.006-0.144,0.01-0.192,0.008h-0.114v0.277H21.638z"/>
<path d="M40.362,9.887c-0.023,0.151-0.065,0.318-0.123,0.496c-0.06,0.18-0.142,0.355-0.247,0.533
	c-0.105,0.176-0.237,0.336-0.395,0.481c-0.158,0.146-0.347,0.264-0.566,0.353c-0.222,0.088-0.477,0.135-0.768,0.137
	c-0.297-0.002-0.553-0.053-0.771-0.149c-0.22-0.097-0.405-0.229-0.558-0.394s-0.278-0.349-0.378-0.553
	c-0.099-0.203-0.175-0.414-0.232-0.63c-0.057-0.216-0.098-0.423-0.123-0.623c-0.027-0.198-0.042-0.376-0.048-0.532
	c-0.007-0.154-0.01-0.274-0.008-0.357c0.001-0.538,0.057-0.993,0.163-1.365c0.106-0.371,0.253-0.669,0.438-0.895
	c0.185-0.228,0.396-0.391,0.634-0.491c0.237-0.101,0.488-0.149,0.753-0.147c0.401,0,0.741,0.081,1.018,0.244
	c0.276,0.162,0.504,0.399,0.68,0.713c0.176,0.313,0.313,0.696,0.412,1.151h0.49l-0.15-2.438h-0.48l-0.25,0.399
	c-0.067-0.049-0.153-0.104-0.258-0.165s-0.23-0.12-0.376-0.177c-0.145-0.058-0.312-0.104-0.503-0.14
	c-0.19-0.039-0.405-0.058-0.642-0.06c-0.415,0.002-0.791,0.063-1.13,0.187c-0.34,0.123-0.64,0.293-0.901,0.508
	c-0.26,0.22-0.48,0.471-0.657,0.758c-0.178,0.285-0.313,0.595-0.405,0.926c-0.09,0.332-0.136,0.672-0.136,1.021
	c0,0.367,0.042,0.729,0.125,1.084c0.085,0.354,0.213,0.688,0.385,1.002c0.172,0.312,0.39,0.586,0.655,0.824
	c0.264,0.238,0.575,0.426,0.935,0.562c0.36,0.135,0.77,0.203,1.23,0.206c0.187,0.002,0.387-0.013,0.6-0.048
	c0.213-0.033,0.428-0.1,0.645-0.193c0.216-0.095,0.421-0.234,0.616-0.417c0.195-0.183,0.365-0.421,0.513-0.718
	c0.146-0.295,0.258-0.66,0.335-1.094H40.362L40.362,9.887z"/>
<path d="M47.151,8.398h-3.249V6.359c-0.001-0.057-0.001-0.112,0.002-0.167c0.003-0.056,0.018-0.104,0.044-0.151
	c0.028-0.045,0.077-0.082,0.146-0.109c0.072-0.026,0.174-0.043,0.307-0.043h0.6V5.42h-3.359v0.469h0.6
	c0.133,0,0.234,0.017,0.306,0.043c0.07,0.027,0.118,0.064,0.146,0.109c0.027,0.047,0.042,0.098,0.045,0.151
	c0.003,0.054,0.003,0.11,0.001,0.167v4.918c0.002,0.055,0.002,0.111-0.001,0.166c-0.003,0.057-0.019,0.105-0.045,0.152
	c-0.028,0.045-0.076,0.08-0.146,0.108c-0.072,0.027-0.173,0.042-0.306,0.042h-0.6v0.471h3.359v-0.471h-0.6
	c-0.133,0-0.235-0.015-0.307-0.042c-0.069-0.028-0.118-0.063-0.146-0.108c-0.026-0.047-0.042-0.098-0.044-0.152
	c-0.003-0.055-0.003-0.111-0.002-0.166V8.868h3.249v2.409c0.001,0.055,0.001,0.111-0.002,0.166
	c-0.003,0.057-0.019,0.105-0.045,0.152c-0.028,0.045-0.077,0.08-0.146,0.108c-0.072,0.027-0.173,0.042-0.307,0.042h-0.6v0.471h3.358
	v-0.471h-0.6c-0.135,0-0.24-0.015-0.312-0.042c-0.072-0.028-0.122-0.063-0.15-0.108c-0.027-0.047-0.043-0.098-0.047-0.152
	c-0.001-0.055-0.003-0.111-0.001-0.166V6.359c-0.002-0.057,0-0.112,0.001-0.167c0.003-0.056,0.02-0.104,0.047-0.151
	c0.028-0.045,0.078-0.082,0.15-0.109c0.071-0.026,0.177-0.043,0.312-0.043h0.6V5.42h-3.358v0.469h0.6
	c0.133,0,0.235,0.017,0.307,0.043c0.07,0.027,0.118,0.064,0.146,0.109c0.026,0.047,0.042,0.098,0.045,0.151s0.003,0.11,0.002,0.167
	V8.398L47.151,8.398z"/>
<path d="M65.159,9.887c-0.023,0.151-0.065,0.318-0.124,0.496c-0.06,0.18-0.142,0.355-0.247,0.533
	c-0.105,0.176-0.236,0.336-0.395,0.481c-0.158,0.146-0.346,0.264-0.566,0.353c-0.222,0.088-0.477,0.135-0.768,0.137
	c-0.296-0.002-0.553-0.053-0.771-0.149c-0.22-0.097-0.405-0.229-0.558-0.394s-0.278-0.349-0.378-0.553
	c-0.099-0.203-0.175-0.414-0.231-0.63c-0.057-0.216-0.099-0.423-0.124-0.623c-0.027-0.198-0.042-0.376-0.048-0.532
	c-0.007-0.154-0.01-0.274-0.008-0.357c0.001-0.538,0.057-0.993,0.163-1.365c0.107-0.371,0.253-0.669,0.438-0.895
	c0.185-0.228,0.396-0.391,0.635-0.491c0.236-0.101,0.488-0.149,0.753-0.147c0.401,0,0.741,0.081,1.018,0.244
	c0.276,0.162,0.505,0.399,0.68,0.713c0.177,0.313,0.313,0.696,0.412,1.151h0.49L65.38,5.42H64.9l-0.25,0.399
	c-0.067-0.049-0.153-0.104-0.258-0.165s-0.23-0.12-0.377-0.177c-0.145-0.058-0.313-0.104-0.503-0.14
	c-0.19-0.039-0.405-0.058-0.642-0.06c-0.415,0.002-0.791,0.063-1.129,0.187c-0.34,0.123-0.64,0.293-0.901,0.508
	c-0.26,0.22-0.48,0.471-0.656,0.758c-0.179,0.285-0.313,0.595-0.405,0.926c-0.09,0.332-0.137,0.672-0.137,1.021
	c0,0.367,0.042,0.729,0.125,1.084c0.084,0.354,0.213,0.688,0.385,1.002c0.171,0.312,0.39,0.586,0.655,0.824
	c0.263,0.238,0.575,0.426,0.935,0.562c0.36,0.135,0.77,0.203,1.229,0.206c0.187,0.002,0.387-0.013,0.6-0.048
	c0.213-0.033,0.428-0.1,0.645-0.193c0.217-0.094,0.421-0.234,0.616-0.417s0.365-0.421,0.513-0.718
	c0.147-0.295,0.258-0.66,0.335-1.094H65.159L65.159,9.887z"/>
<path d="M71.948,8.398h-3.249V6.359c-0.001-0.057-0.001-0.112,0.002-0.167c0.003-0.056,0.018-0.104,0.045-0.151
	c0.028-0.045,0.077-0.082,0.146-0.109c0.072-0.026,0.173-0.043,0.307-0.043h0.6V5.42H66.44v0.469h0.6
	c0.133,0,0.235,0.017,0.306,0.043c0.07,0.027,0.119,0.064,0.147,0.109c0.026,0.047,0.042,0.098,0.045,0.151s0.003,0.11,0.001,0.167
	v4.918c0.002,0.055,0.002,0.111-0.001,0.166c-0.003,0.057-0.019,0.105-0.045,0.152c-0.028,0.045-0.077,0.08-0.147,0.108
	c-0.071,0.027-0.173,0.042-0.306,0.042h-0.6v0.471h3.359v-0.471h-0.6c-0.133,0-0.235-0.015-0.307-0.042
	c-0.07-0.028-0.118-0.063-0.146-0.108c-0.027-0.047-0.042-0.098-0.045-0.152s-0.003-0.111-0.002-0.166V8.868h3.249v2.409
	c0.001,0.055,0.001,0.111-0.002,0.166c-0.003,0.057-0.018,0.105-0.045,0.152c-0.028,0.045-0.077,0.08-0.146,0.108
	c-0.072,0.027-0.173,0.042-0.307,0.042h-0.6v0.471h3.359v-0.471h-0.6c-0.135,0-0.24-0.015-0.312-0.042
	c-0.072-0.028-0.122-0.063-0.15-0.108c-0.026-0.047-0.043-0.098-0.047-0.152c-0.001-0.055-0.003-0.111-0.001-0.166V6.359
	c-0.001-0.057,0-0.112,0.001-0.167c0.003-0.056,0.021-0.104,0.047-0.151c0.028-0.045,0.078-0.082,0.15-0.109
	c0.072-0.026,0.177-0.043,0.312-0.043h0.6V5.42h-3.359v0.469h0.6c0.133,0,0.235,0.017,0.307,0.043
	c0.07,0.027,0.118,0.064,0.146,0.109c0.027,0.047,0.042,0.098,0.045,0.151c0.003,0.054,0.003,0.11,0.002,0.167V8.398L71.948,8.398z"
	/>
<path d="M90.439,9.887c-0.022,0.151-0.063,0.318-0.123,0.496c-0.061,0.18-0.143,0.355-0.248,0.533
	c-0.104,0.176-0.235,0.336-0.395,0.481c-0.158,0.146-0.346,0.264-0.566,0.353c-0.221,0.088-0.477,0.135-0.768,0.137
	c-0.297-0.002-0.553-0.053-0.771-0.149c-0.221-0.097-0.403-0.229-0.559-0.394c-0.152-0.164-0.277-0.349-0.377-0.553
	c-0.1-0.203-0.176-0.414-0.232-0.63s-0.098-0.423-0.123-0.623c-0.026-0.198-0.041-0.376-0.049-0.532
	c-0.006-0.154-0.01-0.274-0.008-0.357c0.002-0.538,0.057-0.993,0.162-1.365c0.107-0.371,0.254-0.669,0.439-0.895
	c0.184-0.228,0.396-0.391,0.635-0.491c0.236-0.101,0.488-0.149,0.752-0.147c0.402,0,0.742,0.081,1.02,0.244
	c0.275,0.162,0.504,0.399,0.681,0.713c0.176,0.314,0.312,0.696,0.409,1.151h0.49L90.659,5.42H90.18l-0.25,0.399
	c-0.066-0.049-0.154-0.104-0.258-0.165c-0.105-0.061-0.23-0.12-0.377-0.177c-0.145-0.058-0.314-0.104-0.504-0.14
	c-0.189-0.039-0.404-0.058-0.641-0.06c-0.416,0.002-0.791,0.063-1.131,0.187s-0.64,0.293-0.9,0.508
	c-0.26,0.22-0.48,0.471-0.656,0.758c-0.18,0.285-0.314,0.595-0.404,0.926c-0.092,0.332-0.137,0.672-0.137,1.021
	c0,0.367,0.041,0.729,0.125,1.084c0.084,0.355,0.213,0.688,0.385,1.002c0.17,0.312,0.389,0.586,0.654,0.824
	c0.264,0.238,0.574,0.426,0.934,0.562c0.361,0.135,0.771,0.203,1.23,0.206c0.186,0.002,0.387-0.013,0.6-0.048
	c0.213-0.033,0.428-0.1,0.646-0.193c0.217-0.094,0.422-0.234,0.616-0.417c0.195-0.183,0.363-0.421,0.513-0.718
	c0.147-0.295,0.26-0.66,0.336-1.094H90.439L90.439,9.887z"/>
<path d="M97.229,8.398H93.98V6.359c-0.002-0.057-0.002-0.112,0-0.167c0.004-0.056,0.021-0.104,0.045-0.151
	c0.029-0.045,0.078-0.082,0.146-0.109c0.072-0.026,0.174-0.043,0.307-0.043h0.603V5.42h-3.358v0.469h0.6
	c0.133,0,0.234,0.017,0.307,0.043c0.07,0.027,0.117,0.064,0.146,0.109c0.026,0.047,0.041,0.098,0.045,0.151s0.004,0.11,0.002,0.167
	v4.918c0.002,0.055,0.002,0.111-0.002,0.166c-0.004,0.057-0.019,0.105-0.045,0.152c-0.029,0.045-0.076,0.08-0.146,0.108
	c-0.072,0.027-0.174,0.042-0.307,0.042h-0.6v0.471h3.358v-0.471h-0.603c-0.133,0-0.233-0.015-0.307-0.042
	c-0.068-0.028-0.117-0.063-0.146-0.108c-0.024-0.047-0.041-0.098-0.045-0.152c-0.002-0.055-0.002-0.111,0-0.166V8.868h3.248v2.409
	c0.002,0.055,0.002,0.111-0.002,0.166c-0.004,0.057-0.018,0.105-0.045,0.152c-0.027,0.045-0.076,0.08-0.146,0.108
	c-0.072,0.027-0.175,0.042-0.308,0.042h-0.6v0.471h3.359v-0.471h-0.6c-0.136,0-0.24-0.015-0.312-0.042
	c-0.072-0.028-0.121-0.063-0.15-0.108c-0.025-0.047-0.043-0.098-0.047-0.152c0-0.055-0.002-0.111,0-0.166V6.359
	c-0.002-0.057,0-0.112,0-0.167c0.004-0.056,0.021-0.104,0.047-0.151c0.029-0.045,0.078-0.082,0.15-0.109
	c0.072-0.026,0.178-0.043,0.312-0.043h0.6V5.42H96.13v0.469h0.601c0.133,0,0.233,0.017,0.307,0.043
	c0.07,0.027,0.119,0.064,0.146,0.109c0.026,0.047,0.041,0.098,0.045,0.151s0.004,0.11,0.002,0.167v2.039H97.229z"/>
<path d="M102.982,12.653v0.115c0,0.139-0.016,0.252-0.043,0.34c-0.026,0.089-0.063,0.157-0.112,0.207
	c-0.048,0.049-0.103,0.084-0.162,0.104c-0.06,0.021-0.125,0.034-0.192,0.039c-0.066,0.006-0.134,0.008-0.199,0.006h-1.279
	c0.002-0.01,0.012-0.031,0.029-0.068c0.018-0.038,0.051-0.09,0.102-0.154c0.049-0.066,0.123-0.148,0.223-0.245
	c0.101-0.099,0.23-0.213,0.396-0.344c0.143-0.11,0.289-0.216,0.438-0.313c0.15-0.101,0.295-0.201,0.435-0.304
	c0.139-0.103,0.262-0.215,0.373-0.335c0.108-0.121,0.196-0.257,0.262-0.408c0.063-0.154,0.099-0.328,0.101-0.527
	c-0.002-0.178-0.029-0.331-0.08-0.465c-0.054-0.133-0.125-0.244-0.215-0.338c-0.091-0.093-0.193-0.166-0.312-0.224
	c-0.117-0.058-0.24-0.101-0.371-0.125s-0.263-0.038-0.394-0.038c-0.184,0.001-0.348,0.023-0.498,0.07
	c-0.149,0.046-0.28,0.107-0.396,0.188c-0.114,0.08-0.213,0.17-0.291,0.271c-0.08,0.102-0.139,0.208-0.182,0.32
	c-0.039,0.111-0.062,0.224-0.062,0.334c0.002,0.119,0.023,0.223,0.068,0.306c0.043,0.084,0.102,0.147,0.178,0.192
	c0.076,0.043,0.162,0.064,0.26,0.064c0.092-0.002,0.168-0.023,0.23-0.064c0.062-0.043,0.107-0.098,0.139-0.162
	s0.047-0.133,0.047-0.201c0-0.062-0.016-0.12-0.043-0.174c-0.027-0.053-0.065-0.099-0.115-0.133
	c-0.051-0.033-0.108-0.054-0.174-0.059c-0.021-0.001-0.045-0.003-0.065-0.005c-0.021,0-0.039-0.006-0.054-0.015
	c-0.014-0.01-0.021-0.026-0.022-0.051c0-0.052,0.021-0.106,0.056-0.173c0.034-0.065,0.088-0.129,0.159-0.192
	c0.07-0.062,0.158-0.112,0.263-0.153c0.104-0.042,0.225-0.062,0.362-0.063c0.095,0,0.188,0.017,0.277,0.049
	c0.088,0.031,0.17,0.08,0.239,0.146c0.072,0.066,0.132,0.152,0.172,0.255c0.044,0.103,0.064,0.228,0.064,0.368
	c0,0.186-0.021,0.346-0.064,0.484c-0.04,0.139-0.102,0.262-0.176,0.367c-0.074,0.107-0.164,0.205-0.264,0.295
	c-0.1,0.092-0.207,0.181-0.324,0.269c-0.115,0.088-0.233,0.183-0.358,0.28c-0.123,0.101-0.246,0.215-0.369,0.341
	c-0.123,0.127-0.242,0.272-0.354,0.442c-0.113,0.166-0.22,0.361-0.314,0.586v0.256h2.893v-1.362H102.982L102.982,12.653z"/>
<path d="M118.866,9.887c-0.023,0.151-0.066,0.318-0.125,0.496c-0.06,0.18-0.142,0.355-0.246,0.533
	c-0.104,0.176-0.236,0.336-0.396,0.481c-0.158,0.146-0.346,0.264-0.565,0.353c-0.222,0.088-0.478,0.135-0.769,0.137
	c-0.297-0.002-0.553-0.053-0.771-0.149c-0.222-0.097-0.404-0.229-0.56-0.394c-0.151-0.164-0.276-0.349-0.379-0.553
	c-0.098-0.203-0.174-0.414-0.229-0.63c-0.058-0.216-0.099-0.423-0.123-0.623c-0.027-0.198-0.043-0.376-0.05-0.532
	c-0.006-0.154-0.01-0.274-0.008-0.357c0.002-0.538,0.058-0.993,0.162-1.365c0.107-0.371,0.254-0.669,0.439-0.895
	c0.184-0.228,0.396-0.391,0.635-0.491c0.236-0.101,0.488-0.149,0.752-0.147c0.402,0,0.742,0.081,1.018,0.244
	c0.277,0.162,0.507,0.399,0.681,0.713c0.178,0.313,0.313,0.696,0.412,1.151h0.489l-0.149-2.438h-0.479l-0.25,0.399
	c-0.067-0.049-0.153-0.104-0.26-0.165c-0.104-0.061-0.229-0.12-0.375-0.177c-0.146-0.058-0.313-0.104-0.504-0.14
	c-0.189-0.039-0.404-0.058-0.643-0.06c-0.414,0.002-0.791,0.063-1.129,0.187c-0.34,0.123-0.639,0.293-0.9,0.508
	c-0.26,0.22-0.48,0.471-0.656,0.758c-0.18,0.285-0.313,0.595-0.406,0.926c-0.09,0.332-0.137,0.672-0.137,1.021
	c0,0.367,0.043,0.729,0.125,1.084c0.086,0.354,0.215,0.688,0.385,1.002c0.172,0.312,0.392,0.586,0.656,0.824
	c0.262,0.238,0.574,0.426,0.934,0.562c0.359,0.135,0.771,0.203,1.23,0.206c0.186,0.002,0.387-0.013,0.6-0.048
	c0.214-0.033,0.429-0.1,0.646-0.193c0.218-0.094,0.422-0.234,0.617-0.417c0.192-0.183,0.362-0.421,0.512-0.718
	c0.146-0.295,0.259-0.66,0.337-1.094H118.866L118.866,9.887z"/>
<path d="M125.654,8.398h-3.25V6.359c0-0.057,0-0.112,0.003-0.167c0.004-0.056,0.02-0.104,0.045-0.151
	c0.028-0.045,0.077-0.082,0.146-0.109c0.072-0.026,0.174-0.043,0.307-0.043h0.601V5.42h-3.356v0.469h0.6
	c0.133,0,0.234,0.017,0.307,0.043c0.07,0.027,0.117,0.064,0.146,0.109c0.025,0.047,0.041,0.098,0.045,0.151s0.004,0.11,0.002,0.167
	v4.918c0.002,0.055,0.002,0.111-0.002,0.166c-0.004,0.057-0.02,0.105-0.045,0.152c-0.029,0.045-0.076,0.08-0.146,0.108
	c-0.072,0.027-0.174,0.042-0.307,0.042h-0.6v0.471h3.356v-0.471h-0.601c-0.133,0-0.233-0.015-0.307-0.042
	c-0.068-0.028-0.117-0.063-0.146-0.108c-0.025-0.047-0.041-0.098-0.045-0.152c-0.003-0.055-0.003-0.111-0.003-0.166V8.868h3.25
	v2.409c0.003,0.055,0.003,0.111-0.002,0.166c-0.004,0.057-0.018,0.105-0.045,0.152c-0.028,0.045-0.075,0.08-0.146,0.108
	c-0.071,0.027-0.174,0.042-0.308,0.042h-0.6v0.471h3.359v-0.471h-0.602c-0.136,0-0.238-0.015-0.312-0.042
	c-0.071-0.028-0.121-0.063-0.149-0.108c-0.025-0.047-0.043-0.098-0.047-0.152c0-0.055-0.005-0.111-0.003-0.166l0.003-4.918
	c-0.005-0.057-0.003-0.112,0-0.167c0.004-0.056,0.021-0.104,0.047-0.151c0.028-0.045,0.078-0.082,0.149-0.109
	c0.071-0.026,0.176-0.043,0.312-0.043h0.602V5.42h-3.359v0.469h0.6c0.134,0,0.234,0.017,0.308,0.043
	c0.07,0.027,0.117,0.064,0.146,0.109c0.027,0.047,0.041,0.098,0.045,0.151c0.005,0.054,0.005,0.11,0.002,0.167V8.398L125.654,8.398z
	"/>
<path d="M129.6,11.885h0.18c0.088,0,0.184,0.002,0.291,0.011c0.106,0.008,0.213,0.028,0.318,0.06
	c0.106,0.032,0.204,0.082,0.295,0.151c0.088,0.069,0.159,0.165,0.215,0.287c0.055,0.12,0.082,0.274,0.082,0.465
	c0,0.167-0.025,0.312-0.072,0.433c-0.047,0.118-0.111,0.217-0.191,0.293c-0.082,0.076-0.172,0.131-0.273,0.168
	c-0.1,0.036-0.205,0.053-0.312,0.053c-0.104,0-0.207-0.016-0.305-0.045c-0.099-0.029-0.187-0.067-0.265-0.114
	c-0.08-0.048-0.141-0.097-0.188-0.147c-0.045-0.052-0.068-0.101-0.07-0.146c0.002-0.034,0.014-0.06,0.039-0.079
	c0.023-0.02,0.053-0.034,0.084-0.044c0.031-0.011,0.059-0.019,0.082-0.024c0.051-0.015,0.096-0.037,0.135-0.066
	c0.041-0.029,0.072-0.066,0.097-0.11c0.024-0.043,0.036-0.093,0.038-0.147c-0.002-0.104-0.024-0.188-0.067-0.26
	c-0.045-0.07-0.104-0.124-0.174-0.16c-0.07-0.035-0.146-0.055-0.228-0.055c-0.1,0-0.19,0.027-0.272,0.082s-0.146,0.137-0.195,0.243
	c-0.049,0.106-0.071,0.239-0.073,0.397c0.002,0.111,0.032,0.226,0.1,0.34c0.064,0.113,0.158,0.22,0.281,0.314
	c0.123,0.098,0.272,0.174,0.447,0.232c0.176,0.06,0.373,0.09,0.592,0.092c0.164,0,0.324-0.018,0.479-0.055
	c0.158-0.037,0.308-0.09,0.442-0.158c0.138-0.07,0.261-0.157,0.363-0.26c0.105-0.104,0.188-0.222,0.248-0.354
	c0.06-0.134,0.09-0.279,0.09-0.441c0-0.166-0.033-0.313-0.096-0.444c-0.062-0.132-0.146-0.243-0.252-0.337s-0.225-0.168-0.357-0.225
	c-0.131-0.056-0.268-0.092-0.407-0.106v-0.038c0.129-0.023,0.256-0.064,0.375-0.124c0.12-0.058,0.229-0.13,0.325-0.218
	c0.099-0.088,0.172-0.189,0.229-0.305c0.06-0.115,0.088-0.24,0.088-0.379c0-0.098-0.021-0.197-0.057-0.3
	c-0.037-0.103-0.097-0.198-0.17-0.293c-0.078-0.094-0.175-0.178-0.289-0.251c-0.115-0.075-0.25-0.134-0.406-0.177
	c-0.155-0.044-0.334-0.065-0.53-0.066c-0.181,0.001-0.351,0.025-0.511,0.076c-0.157,0.051-0.297,0.122-0.42,0.214
	c-0.121,0.092-0.219,0.201-0.287,0.327c-0.069,0.127-0.104,0.267-0.106,0.419c0.002,0.087,0.024,0.162,0.067,0.225
	c0.046,0.062,0.104,0.109,0.175,0.143c0.069,0.033,0.146,0.05,0.227,0.05c0.076-0.001,0.143-0.015,0.193-0.039
	c0.053-0.026,0.094-0.058,0.125-0.095c0.03-0.038,0.053-0.075,0.063-0.112c0.015-0.038,0.021-0.067,0.021-0.093
	c0-0.04-0.004-0.082-0.013-0.13c-0.008-0.048-0.024-0.095-0.053-0.142c-0.028-0.045-0.065-0.084-0.121-0.119
	c-0.021-0.012-0.039-0.021-0.062-0.031c-0.021-0.01-0.037-0.021-0.051-0.031c-0.016-0.012-0.021-0.025-0.022-0.04
	c0-0.024,0.018-0.056,0.053-0.091c0.033-0.035,0.082-0.07,0.146-0.105c0.064-0.035,0.142-0.062,0.23-0.086
	c0.088-0.023,0.189-0.035,0.301-0.037c0.021-0.002,0.061,0.004,0.117,0.012c0.059,0.009,0.121,0.027,0.193,0.056
	c0.074,0.028,0.145,0.069,0.211,0.129c0.068,0.056,0.125,0.134,0.17,0.229c0.045,0.098,0.068,0.218,0.068,0.361
	c0,0.147-0.025,0.274-0.074,0.379c-0.049,0.105-0.111,0.192-0.191,0.262c-0.08,0.068-0.166,0.123-0.262,0.164
	s-0.189,0.07-0.285,0.091c-0.096,0.02-0.184,0.032-0.262,0.038c-0.08,0.006-0.146,0.01-0.191,0.008H129.6V11.885L129.6,11.885z"/>
<line fill="none" stroke="#000000" stroke-width="0.5995" stroke-miterlimit="22.9256" x1="104.146" y1="8.418" x2="111.747" y2="8.418"/>
<line fill="none" stroke="#000000" stroke-width="0.5995" stroke-miterlimit="22.9256" x1="37.864" y1="20.812" x2="37.864" y2="14.016"/>
<path d="M40.36,26.783c-0.022,0.151-0.063,0.318-0.123,0.497c-0.062,0.179-0.144,0.354-0.246,0.531
	c-0.104,0.177-0.235,0.336-0.396,0.483c-0.158,0.146-0.346,0.264-0.566,0.352s-0.477,0.135-0.768,0.137
	c-0.297-0.002-0.553-0.052-0.771-0.15c-0.219-0.096-0.404-0.228-0.559-0.393c-0.152-0.164-0.277-0.348-0.377-0.551
	c-0.101-0.205-0.176-0.415-0.232-0.63c-0.057-0.218-0.098-0.423-0.123-0.623c-0.027-0.2-0.041-0.376-0.049-0.533
	c-0.006-0.155-0.01-0.274-0.008-0.358c0.002-0.537,0.057-0.992,0.164-1.363c0.104-0.372,0.252-0.67,0.438-0.895
	c0.186-0.228,0.396-0.391,0.635-0.492c0.236-0.1,0.488-0.149,0.754-0.147c0.4,0,0.74,0.082,1.019,0.245
	c0.274,0.162,0.504,0.398,0.681,0.713c0.176,0.312,0.312,0.695,0.411,1.15h0.488l-0.147-2.438h-0.48l-0.25,0.399
	c-0.066-0.047-0.154-0.103-0.258-0.164c-0.105-0.061-0.23-0.12-0.377-0.178c-0.146-0.057-0.312-0.104-0.504-0.14
	c-0.189-0.038-0.404-0.058-0.642-0.058c-0.414,0-0.791,0.064-1.129,0.187c-0.342,0.122-0.642,0.292-0.901,0.509
	c-0.261,0.217-0.48,0.469-0.656,0.756c-0.178,0.287-0.312,0.595-0.404,0.927c-0.09,0.331-0.137,0.671-0.137,1.021
	c0,0.368,0.041,0.73,0.125,1.084c0.084,0.355,0.213,0.688,0.385,1.002c0.172,0.312,0.389,0.586,0.654,0.824
	c0.264,0.239,0.574,0.426,0.936,0.562c0.359,0.135,0.77,0.203,1.229,0.207c0.188,0.002,0.388-0.014,0.601-0.049
	c0.213-0.033,0.428-0.098,0.646-0.192c0.217-0.095,0.422-0.234,0.616-0.416c0.195-0.183,0.365-0.423,0.515-0.718
	c0.146-0.295,0.258-0.66,0.334-1.094H40.36V26.783z"/>
<path d="M47.149,25.293h-3.248v-2.039c-0.002-0.057-0.002-0.111,0.002-0.166c0.002-0.056,0.019-0.105,0.045-0.152
	c0.027-0.045,0.076-0.082,0.146-0.109c0.07-0.027,0.172-0.043,0.308-0.043h0.601v-0.47h-3.359v0.47h0.6
	c0.133,0,0.234,0.016,0.307,0.043c0.07,0.027,0.119,0.064,0.146,0.109c0.027,0.047,0.041,0.097,0.045,0.152
	c0.004,0.055,0.004,0.109,0.002,0.166v4.918c0.002,0.056,0.002,0.113-0.002,0.168s-0.018,0.104-0.045,0.15
	c-0.027,0.045-0.076,0.082-0.146,0.11c-0.071,0.026-0.174,0.042-0.307,0.042h-0.6v0.47h3.359v-0.47h-0.601
	c-0.136,0-0.235-0.016-0.308-0.042c-0.069-0.028-0.118-0.065-0.146-0.11c-0.026-0.047-0.043-0.097-0.045-0.15
	c-0.004-0.055-0.004-0.112-0.002-0.168v-2.408h3.248v2.408c0.002,0.056,0.002,0.113-0.002,0.168
	c-0.002,0.055-0.019,0.104-0.045,0.15c-0.027,0.045-0.076,0.082-0.146,0.11c-0.07,0.026-0.173,0.042-0.308,0.042h-0.601v0.47h3.359
	v-0.47h-0.6c-0.135,0-0.24-0.016-0.312-0.042c-0.07-0.028-0.121-0.065-0.148-0.11c-0.026-0.047-0.045-0.097-0.047-0.15
	c-0.002-0.055-0.004-0.112-0.002-0.168v-4.918c-0.002-0.057,0-0.111,0.002-0.166c0.002-0.056,0.021-0.105,0.047-0.152
	c0.027-0.045,0.078-0.082,0.148-0.109c0.072-0.027,0.178-0.043,0.312-0.043h0.6v-0.47h-3.359v0.47h0.601
	c0.135,0,0.235,0.016,0.308,0.043c0.069,0.027,0.118,0.064,0.146,0.109c0.026,0.047,0.043,0.097,0.045,0.152
	c0.004,0.055,0.004,0.109,0.002,0.166V25.293L47.149,25.293z"/>
<path d="M51.091,28.781h0.181c0.088-0.001,0.187,0.002,0.293,0.01c0.104,0.008,0.213,0.028,0.317,0.06
	c0.105,0.032,0.205,0.082,0.293,0.151c0.09,0.068,0.16,0.164,0.215,0.287c0.056,0.121,0.082,0.275,0.084,0.465
	c-0.002,0.166-0.024,0.311-0.071,0.432c-0.047,0.12-0.11,0.218-0.192,0.293c-0.08,0.077-0.173,0.132-0.271,0.168
	c-0.102,0.037-0.205,0.053-0.314,0.053c-0.104-0.001-0.207-0.016-0.305-0.046s-0.186-0.067-0.264-0.114s-0.141-0.096-0.187-0.147
	c-0.047-0.052-0.069-0.101-0.069-0.146c0-0.035,0.014-0.061,0.037-0.08c0.024-0.02,0.053-0.033,0.086-0.043
	c0.03-0.012,0.059-0.019,0.08-0.024c0.051-0.015,0.096-0.037,0.137-0.067c0.039-0.029,0.072-0.066,0.096-0.111
	c0.023-0.041,0.035-0.092,0.037-0.147c-0.002-0.103-0.025-0.188-0.068-0.259c-0.045-0.07-0.102-0.124-0.172-0.16
	c-0.072-0.036-0.146-0.055-0.227-0.055c-0.103,0-0.193,0.029-0.275,0.082c-0.082,0.056-0.146,0.137-0.193,0.244
	c-0.051,0.106-0.074,0.239-0.076,0.397c0.002,0.112,0.033,0.226,0.101,0.339c0.063,0.114,0.158,0.221,0.283,0.314
	c0.123,0.098,0.271,0.175,0.446,0.234c0.174,0.059,0.371,0.088,0.59,0.09c0.164,0,0.324-0.018,0.482-0.054
	c0.156-0.036,0.305-0.089,0.441-0.159c0.139-0.07,0.26-0.156,0.365-0.259c0.104-0.103,0.188-0.221,0.246-0.353
	c0.061-0.133,0.09-0.28,0.092-0.441c-0.002-0.167-0.033-0.314-0.098-0.445c-0.062-0.131-0.146-0.244-0.25-0.336
	c-0.107-0.094-0.228-0.168-0.357-0.224c-0.131-0.056-0.268-0.093-0.408-0.108v-0.037c0.129-0.025,0.254-0.065,0.375-0.125
	c0.119-0.058,0.229-0.129,0.324-0.217c0.098-0.088,0.174-0.189,0.23-0.304c0.057-0.116,0.086-0.241,0.086-0.379
	c0-0.099-0.019-0.198-0.058-0.3c-0.037-0.103-0.094-0.199-0.17-0.293s-0.172-0.178-0.287-0.252
	c-0.117-0.074-0.252-0.133-0.408-0.176c-0.155-0.043-0.331-0.065-0.528-0.066c-0.183,0.001-0.351,0.025-0.51,0.076
	c-0.158,0.051-0.3,0.123-0.423,0.213c-0.12,0.094-0.217,0.203-0.286,0.328c-0.07,0.127-0.105,0.267-0.105,0.418
	c0,0.088,0.023,0.164,0.068,0.225c0.045,0.062,0.102,0.109,0.172,0.143c0.069,0.032,0.146,0.049,0.227,0.049
	c0.078,0,0.143-0.014,0.195-0.039c0.051-0.025,0.094-0.057,0.123-0.094c0.031-0.039,0.053-0.076,0.063-0.113
	c0.015-0.037,0.021-0.067,0.021-0.092c0.002-0.041-0.002-0.082-0.01-0.131c-0.011-0.047-0.027-0.094-0.056-0.14
	c-0.024-0.046-0.065-0.085-0.121-0.121c-0.021-0.011-0.039-0.021-0.062-0.03c-0.02-0.011-0.036-0.021-0.051-0.033
	c-0.016-0.012-0.021-0.024-0.022-0.039c0-0.026,0.021-0.057,0.053-0.092c0.035-0.035,0.084-0.069,0.148-0.104
	c0.062-0.035,0.141-0.063,0.229-0.087c0.091-0.023,0.189-0.035,0.302-0.037c0.021-0.001,0.062,0.003,0.119,0.012
	c0.057,0.008,0.12,0.026,0.192,0.055c0.071,0.029,0.144,0.07,0.209,0.129c0.067,0.057,0.125,0.133,0.17,0.229
	c0.045,0.098,0.067,0.219,0.069,0.363c-0.002,0.146-0.024,0.273-0.073,0.379c-0.049,0.104-0.113,0.191-0.19,0.26
	c-0.08,0.069-0.168,0.125-0.265,0.165c-0.094,0.041-0.188,0.07-0.285,0.091c-0.094,0.02-0.182,0.031-0.262,0.039
	c-0.08,0.004-0.144,0.008-0.19,0.006h-0.115v0.283H51.091z"/>
<line fill="none" stroke="#000000" stroke-width="0.5995" stroke-miterlimit="22.9256" x1="62.661" y1="20.812" x2="62.661" y2="14.016"/>
<path d="M65.157,26.783c-0.022,0.151-0.063,0.318-0.123,0.497c-0.062,0.179-0.144,0.354-0.246,0.531
	c-0.104,0.177-0.235,0.336-0.396,0.483c-0.158,0.146-0.346,0.264-0.566,0.352s-0.477,0.135-0.768,0.137
	c-0.297-0.002-0.553-0.052-0.771-0.15c-0.219-0.096-0.404-0.228-0.559-0.393c-0.152-0.164-0.277-0.348-0.377-0.551
	c-0.101-0.205-0.176-0.415-0.232-0.63c-0.057-0.218-0.098-0.423-0.123-0.623c-0.027-0.2-0.041-0.376-0.049-0.533
	c-0.006-0.155-0.01-0.274-0.008-0.358c0.002-0.537,0.057-0.992,0.164-1.363c0.104-0.372,0.252-0.67,0.438-0.895
	c0.186-0.228,0.396-0.391,0.635-0.492c0.236-0.1,0.488-0.149,0.754-0.147c0.4,0,0.74,0.082,1.019,0.245
	c0.274,0.162,0.504,0.398,0.681,0.713c0.176,0.312,0.312,0.695,0.411,1.15h0.488l-0.147-2.438H64.9l-0.25,0.399
	c-0.066-0.047-0.154-0.103-0.258-0.164c-0.105-0.061-0.23-0.12-0.377-0.178c-0.146-0.057-0.312-0.104-0.504-0.14
	c-0.189-0.038-0.404-0.058-0.642-0.058c-0.414,0-0.791,0.064-1.129,0.187c-0.342,0.122-0.642,0.292-0.901,0.509
	c-0.261,0.217-0.48,0.469-0.656,0.756c-0.178,0.287-0.312,0.595-0.404,0.927c-0.09,0.331-0.137,0.671-0.137,1.021
	c0,0.368,0.041,0.73,0.125,1.084c0.084,0.355,0.213,0.688,0.385,1.002c0.172,0.312,0.389,0.586,0.654,0.824
	c0.264,0.239,0.574,0.426,0.936,0.562c0.359,0.135,0.77,0.203,1.229,0.207c0.188,0.002,0.388-0.014,0.601-0.049
	c0.213-0.033,0.428-0.098,0.646-0.192c0.217-0.095,0.422-0.234,0.616-0.416c0.195-0.183,0.365-0.423,0.515-0.718
	c0.146-0.295,0.258-0.66,0.334-1.094h-0.524V26.783z"/>
<path d="M71.946,25.293h-3.248v-2.039c-0.002-0.057-0.002-0.111,0.002-0.166c0.002-0.056,0.019-0.105,0.045-0.152
	c0.027-0.045,0.076-0.082,0.146-0.109c0.07-0.027,0.172-0.043,0.308-0.043h0.601v-0.47h-3.359v0.47h0.6
	c0.133,0,0.234,0.016,0.307,0.043c0.07,0.027,0.119,0.064,0.146,0.109c0.027,0.047,0.041,0.097,0.045,0.152
	c0.004,0.055,0.004,0.109,0.002,0.166v4.918c0.002,0.056,0.002,0.113-0.002,0.168s-0.018,0.104-0.045,0.15
	c-0.027,0.045-0.076,0.082-0.146,0.11c-0.071,0.026-0.174,0.042-0.307,0.042h-0.6v0.47h3.359v-0.47h-0.601
	c-0.136,0-0.235-0.016-0.308-0.042c-0.069-0.028-0.118-0.065-0.146-0.11c-0.026-0.047-0.043-0.097-0.045-0.15
	c-0.004-0.055-0.004-0.112-0.002-0.168v-2.408h3.248v2.408c0.002,0.056,0.002,0.113-0.002,0.168
	c-0.002,0.055-0.019,0.104-0.045,0.15c-0.027,0.045-0.076,0.082-0.146,0.11c-0.07,0.026-0.173,0.042-0.308,0.042h-0.601v0.47h3.359
	v-0.47h-0.6c-0.135,0-0.24-0.016-0.312-0.042c-0.07-0.028-0.121-0.065-0.148-0.11c-0.026-0.047-0.045-0.097-0.047-0.15
	c-0.002-0.055-0.004-0.112-0.002-0.168v-4.918c-0.002-0.057,0-0.111,0.002-0.166c0.002-0.056,0.021-0.105,0.047-0.152
	c0.027-0.045,0.078-0.082,0.148-0.109c0.072-0.027,0.178-0.043,0.312-0.043h0.6v-0.47h-3.359v0.47h0.601
	c0.135,0,0.235,0.016,0.308,0.043c0.069,0.027,0.118,0.064,0.146,0.109c0.026,0.047,0.043,0.097,0.045,0.152
	c0.004,0.055,0.004,0.109,0.002,0.166V25.293L71.946,25.293z"/>
<path d="M75.888,28.781h0.181c0.088-0.001,0.187,0.002,0.293,0.01c0.104,0.008,0.213,0.028,0.317,0.06
	c0.105,0.032,0.205,0.082,0.293,0.151c0.09,0.068,0.16,0.164,0.215,0.287c0.056,0.121,0.082,0.275,0.084,0.465
	c-0.002,0.166-0.024,0.311-0.071,0.432c-0.047,0.12-0.11,0.218-0.192,0.293c-0.08,0.077-0.173,0.132-0.271,0.168
	c-0.102,0.037-0.205,0.053-0.314,0.053c-0.104-0.001-0.207-0.016-0.305-0.046s-0.186-0.067-0.264-0.114s-0.141-0.096-0.187-0.147
	c-0.047-0.052-0.069-0.101-0.069-0.146c0-0.035,0.014-0.061,0.037-0.08c0.024-0.02,0.053-0.033,0.086-0.043
	c0.03-0.012,0.059-0.019,0.08-0.024c0.051-0.015,0.096-0.037,0.137-0.067c0.039-0.029,0.072-0.066,0.096-0.111
	c0.023-0.041,0.035-0.092,0.037-0.147c-0.002-0.103-0.025-0.188-0.068-0.259c-0.045-0.07-0.102-0.124-0.172-0.16
	c-0.072-0.036-0.146-0.055-0.227-0.055c-0.103,0-0.193,0.029-0.275,0.082c-0.082,0.056-0.146,0.137-0.193,0.244
	c-0.051,0.106-0.074,0.239-0.076,0.397c0.002,0.112,0.033,0.226,0.101,0.339c0.063,0.114,0.158,0.221,0.283,0.314
	c0.123,0.098,0.271,0.175,0.446,0.234c0.174,0.059,0.371,0.088,0.59,0.09c0.164,0,0.324-0.018,0.482-0.054
	c0.156-0.036,0.305-0.089,0.441-0.159c0.139-0.07,0.26-0.156,0.365-0.259c0.104-0.103,0.188-0.221,0.246-0.353
	c0.061-0.133,0.09-0.28,0.092-0.441c-0.002-0.167-0.033-0.314-0.098-0.445c-0.062-0.131-0.146-0.244-0.25-0.336
	c-0.107-0.094-0.228-0.168-0.357-0.224c-0.131-0.056-0.268-0.093-0.408-0.108v-0.037c0.129-0.025,0.254-0.065,0.375-0.125
	c0.119-0.058,0.229-0.129,0.324-0.217c0.098-0.088,0.174-0.189,0.23-0.304c0.057-0.116,0.086-0.241,0.086-0.379
	c0-0.099-0.019-0.198-0.058-0.3c-0.037-0.103-0.094-0.199-0.17-0.293s-0.172-0.178-0.287-0.252
	c-0.117-0.074-0.252-0.133-0.408-0.176c-0.155-0.043-0.331-0.065-0.528-0.066c-0.183,0.001-0.351,0.025-0.51,0.076
	c-0.158,0.051-0.3,0.123-0.423,0.213c-0.12,0.094-0.217,0.203-0.286,0.328c-0.07,0.127-0.105,0.267-0.105,0.418
	c0,0.088,0.023,0.164,0.068,0.225c0.045,0.062,0.102,0.109,0.172,0.143c0.069,0.032,0.146,0.049,0.227,0.049
	c0.078,0,0.143-0.014,0.195-0.039c0.051-0.025,0.094-0.057,0.123-0.094c0.031-0.039,0.053-0.076,0.063-0.113
	c0.015-0.037,0.021-0.067,0.021-0.092c0.002-0.041-0.002-0.082-0.01-0.131c-0.011-0.047-0.027-0.094-0.056-0.14
	c-0.024-0.046-0.065-0.085-0.121-0.121c-0.021-0.011-0.039-0.021-0.062-0.03c-0.02-0.011-0.036-0.021-0.051-0.033
	c-0.016-0.012-0.021-0.024-0.022-0.039c0-0.026,0.021-0.057,0.053-0.092c0.035-0.035,0.084-0.069,0.148-0.104
	c0.062-0.035,0.141-0.063,0.229-0.087c0.091-0.023,0.189-0.035,0.302-0.037c0.021-0.001,0.062,0.003,0.119,0.012
	c0.057,0.008,0.12,0.026,0.192,0.055c0.071,0.029,0.144,0.07,0.209,0.129c0.067,0.057,0.125,0.133,0.17,0.229
	c0.045,0.098,0.067,0.219,0.069,0.363c-0.002,0.146-0.024,0.273-0.073,0.379c-0.049,0.104-0.113,0.191-0.19,0.26
	c-0.08,0.069-0.168,0.125-0.265,0.165c-0.094,0.041-0.188,0.07-0.285,0.091c-0.094,0.02-0.182,0.031-0.262,0.039
	c-0.08,0.004-0.144,0.008-0.19,0.006H75.89v0.283H75.888z"/>
</svg>
