<?xml version="1.0" encoding="utf-8"?>
<!-- Generator: Adobe Illustrator 15.1.0, SVG Export Plug-In . SVG Version: 6.00 Build 0)  -->
<!DOCTYPE svg PUBLIC "-//W3C//DTD SVG 1.1//EN" "http://www.w3.org/Graphics/SVG/1.1/DTD/svg11.dtd">
<svg version="1.1" id="Layer_1" xmlns="http://www.w3.org/2000/svg" xmlns:xlink="http://www.w3.org/1999/xlink" x="0px" y="0px"
	 width="50px" height="50px" viewBox="0 0 50 50" enable-background="new 0 0 50 50" xml:space="preserve">
<path fill="#0064C8" d="M25,39c-7.72,0-14-6.281-14-14c0-7.72,6.28-14,14-14c7.719,0,14,6.28,14,14C39,32.719,32.719,39,25,39z"/>
<path opacity="0.3" fill="#FFFFFF" enable-background="new    " d="M35.607,14.391c-5.842-5.854-15.37-5.854-21.218,0
	c-5.854,5.849-5.854,15.376,0,21.22c5.849,5.854,15.376,5.854,21.218,0C41.463,29.768,41.463,20.24,35.607,14.391z M15.094,34.9
	c-5.46-5.455-5.459-14.347,0-19.806c5.466-5.461,14.351-5.461,19.806,0c5.465,5.459,5.465,14.351,0,19.806
	C29.445,40.365,20.56,40.365,15.094,34.9z"/>
</svg>
