<?xml version="1.0" encoding="utf-8"?>
<!-- Generator: Adobe Illustrator 16.0.0, SVG Export Plug-In . SVG Version: 6.00 Build 0)  -->
<!DOCTYPE svg PUBLIC "-//W3C//DTD SVG 1.1//EN" "http://www.w3.org/Graphics/SVG/1.1/DTD/svg11.dtd">
<svg version="1.1" id="Layer_1" xmlns="http://www.w3.org/2000/svg" xmlns:xlink="http://www.w3.org/1999/xlink" x="0px" y="0px"
	 width="60px" height="30px" viewBox="0 0 60 30" enable-background="new 0 0 60 30" xml:space="preserve">
<linearGradient id="SVGID_1_" gradientUnits="userSpaceOnUse" x1="288" y1="-340.166" x2="288" y2="-370.262" gradientTransform="matrix(1 0 0 -1 -281 -340)">
	<stop  offset="0" style="stop-color:#242424"/>
	<stop  offset="1" style="stop-color:#000000"/>
</linearGradient>
<path fill="url(#SVGID_1_)" d="M0,0v30h14V0H0z"/>
<linearGradient id="SVGID_2_" gradientUnits="userSpaceOnUse" x1="333.999" y1="-340.166" x2="333.999" y2="-370.262" gradientTransform="matrix(1 0 0 -1 -281 -340)">
	<stop  offset="0" style="stop-color:#242424"/>
	<stop  offset="1" style="stop-color:#000000"/>
</linearGradient>
<path fill="url(#SVGID_2_)" d="M46,0v30h14V0H46z"/>
<linearGradient id="SVGID_3_" gradientUnits="userSpaceOnUse" x1="311" y1="-369.8325" x2="311" y2="-340.2307" gradientTransform="matrix(1 0 0 -1 -281 -340)">
	<stop  offset="0" style="stop-color:#242424"/>
	<stop  offset="1" style="stop-color:#000000"/>
</linearGradient>
<path fill="url(#SVGID_3_)" d="M16,0v30h28V0H16z M42,28H18V2h24V28z"/>
</svg>
