<?xml version="1.0" encoding="utf-8"?>
<!-- Generator: Adobe Illustrator 15.1.0, SVG Export Plug-In . SVG Version: 6.00 Build 0)  -->
<!DOCTYPE svg PUBLIC "-//W3C//DTD SVG 1.1//EN" "http://www.w3.org/Graphics/SVG/1.1/DTD/svg11.dtd">
<svg version="1.1" id="Layer_1" xmlns="http://www.w3.org/2000/svg" xmlns:xlink="http://www.w3.org/1999/xlink" x="0px" y="0px"
	 width="15px" height="15px" viewBox="0 0 15 15" enable-background="new 0 0 15 15" xml:space="preserve">
<g id="Layer_1_2_" display="none">
	<g id="Layer_1_1_" display="inline">
		<g>
			<path fill="#0046BE" d="M8.282,3.3C7.727,3.313,7.215,3.57,6.739,4.072c-0.476,0.501-0.88,1.361-1.214,2.58
				c1.246-0.037,2.214-0.25,2.911-0.637c0.691-0.389,1.039-0.925,1.039-1.61c0-0.267-0.082-0.515-0.24-0.742
				C9.074,3.434,8.758,3.313,8.282,3.3z"/>
			<path fill="#0046BE" d="M7.5,0.084c-4.096,0-7.416,3.321-7.416,7.416s3.32,7.416,7.416,7.416c4.096,0,7.417-3.321,7.417-7.416
				S11.596,0.084,7.5,0.084z M9.945,6.479C9.041,7.005,7.581,7.346,5.562,7.5C5.511,7.718,5.476,7.932,5.457,8.135
				c-0.02,0.206-0.03,0.405-0.03,0.598c0,0.771,0.196,1.399,0.588,1.891c0.391,0.488,0.965,0.73,1.723,0.73
				c0.246,0,0.487-0.039,0.723-0.114c0.236-0.077,0.461-0.175,0.674-0.289c0.211-0.113,0.406-0.235,0.58-0.366
				c0.174-0.128,0.324-0.241,0.453-0.348l0.311,0.365c-0.111,0.246-0.285,0.482-0.502,0.713c-0.219,0.23-0.477,0.438-0.771,0.627
				c-0.297,0.188-0.631,0.334-1.002,0.44c-0.374,0.112-0.772,0.165-1.196,0.165c-1.066,0-1.885-0.306-2.456-0.916
				C3.98,11.023,3.695,10.178,3.695,9.1c0-0.912,0.129-1.771,0.385-2.583C4.336,5.706,4.697,5,5.16,4.396
				c0.462-0.604,1.023-1.078,1.686-1.425c0.662-0.346,1.397-0.52,2.208-0.52c0.611,0,1.145,0.157,1.59,0.472
				c0.439,0.315,0.664,0.78,0.664,1.396C11.305,5.234,10.854,5.953,9.945,6.479z"/>
		</g>
	</g>
	<g id="Layer_2" display="inline">
		<polygon fill="#0046BE" points="15,4.914 15,0 9.848,0 12.039,1.357 6.318,7.027 6.318,8.441 7.732,8.441 13.473,2.706 		"/>
		<path fill="#0046BE" d="M11.275,7.094V11.1c0,0.092-0.074,0.166-0.166,0.166h-7.38c-0.092,0-0.166-0.074-0.166-0.166V3.65
			c0-0.092,0.074-0.166,0.166-0.166h3.866l2-2H3.729c-1.196,0-2.166,0.97-2.166,2.166v7.278c0,1.195,0.97,2.166,2.166,2.166h7.38
			c1.195,0,2.166-0.971,2.166-2.166V5.094L11.275,7.094z"/>
	</g>
</g>
<g id="Layer_2_1_">
	<polygon fill="#AAC8FF" points="13.223,6.141 13.223,1.785 8.984,1.784 8.984,2.716 11.577,2.716 5.525,8.768 6.232,9.475 
		12.284,3.423 12.284,6.141 	"/>
	<path fill="#AAC8FF" d="M10.391,7.124v4.438c0,0.361-0.293,0.655-0.654,0.655H3.437c-0.361,0-0.655-0.294-0.655-0.655V5.265
		c0-0.361,0.294-0.656,0.655-0.656h4.564l1-1H3.437c-0.914,0-1.655,0.741-1.655,1.656v6.299c0,0.914,0.741,1.654,1.655,1.654h6.299
		c0.914,0,1.654-0.74,1.654-1.654v-5.44L10.391,7.124z"/>
</g>
</svg>
