<?xml version="1.0" encoding="utf-8"?>
<!-- Generator: Adobe Illustrator 15.1.0, SVG Export Plug-In . SVG Version: 6.00 Build 0)  -->
<!DOCTYPE svg PUBLIC "-//W3C//DTD SVG 1.1//EN" "http://www.w3.org/Graphics/SVG/1.1/DTD/svg11.dtd">
<svg version="1.1" id="Layer_1" xmlns="http://www.w3.org/2000/svg" xmlns:xlink="http://www.w3.org/1999/xlink" x="0px" y="0px"
	 width="33.957px" height="33.957px" viewBox="0 0 33.957 33.957" enable-background="new 0 0 33.957 33.957" xml:space="preserve">
<g>
	
		<line fill="none" stroke="#759FDB" stroke-width="2.8346" stroke-miterlimit="10" x1="22.438" y1="16.978" x2="5.716" y2="16.979"/>
	<polygon fill="#759FDB" stroke="#759FDB" stroke-miterlimit="10" points="21.195,12.763 28.539,17.001 21.195,21.242 	"/>
	<circle fill="none" stroke="#759FDB" stroke-width="2.8346" stroke-miterlimit="10" cx="16.978" cy="16.978" r="15.561"/>
</g>
</svg>
