<?xml version="1.0" encoding="utf-8"?>
<!-- Generator: Adobe Illustrator 17.0.0, SVG Export Plug-In . SVG Version: 6.00 Build 0)  -->
<!DOCTYPE svg PUBLIC "-//W3C//DTD SVG 1.1//EN" "http://www.w3.org/Graphics/SVG/1.1/DTD/svg11.dtd">
<svg version="1.1" id="Layer_1" xmlns="http://www.w3.org/2000/svg" xmlns:xlink="http://www.w3.org/1999/xlink" x="0px" y="0px"
	 width="50px" height="50px" viewBox="0 0 50 50" enable-background="new 0 0 50 50" xml:space="preserve">
<g id="Layer_2" display="none">
	<g display="inline">
		<rect fill="none" width="50" height="50"/>
		<g>
			
				<linearGradient id="SVGID_1_" gradientUnits="userSpaceOnUse" x1="1695" y1="2230.125" x2="1695" y2="2264.6284" gradientTransform="matrix(1 0 0 1 -1686 -2222)">
				<stop  offset="0" style="stop-color:#696969"/>
				<stop  offset="1" style="stop-color:#8C8C8C"/>
			</linearGradient>
			<rect x="7" y="7" fill="url(#SVGID_1_)" width="4" height="36"/>
			<path fill="#FFFF00" d="M14.021,7L14,43h29V7H14.021z M41,41H16V9h25V41z"/>
		</g>
		
			<linearGradient id="SVGID_2_" gradientUnits="userSpaceOnUse" x1="1725.9286" y1="2232.4792" x2="1702.9286" y2="2261.7292" gradientTransform="matrix(1 0 0 1 -1686 -2222)">
			<stop  offset="0" style="stop-color:#696969"/>
			<stop  offset="1" style="stop-color:#8C8C8C"/>
		</linearGradient>
		<path fill="url(#SVGID_2_)" d="M14.021,7L14,43h29V7H14.021z M41,41H16V9h25V41z"/>
		<g opacity="0.4">
			<path d="M11,43H7V7h4V43z M7.5,42.5h3v-35h-3V42.5z"/>
			<path d="M43,43H14V7h29V43z M14.5,42.5h28v-35H14.521L14.5,42.5z M41.5,41.5h-26v-33h26V41.5z M16,41h25V9H16V41z"/>
		</g>
		<g opacity="0.2">
			<path fill="#FFFFFF" d="M6,44h6V6H6V44z M7,7h4v36H7V7z"/>
			<path fill="#FFFFFF" d="M13,6v38h31V6H13z M43,43H14V7h29V43z"/>
			<path fill="#FFFFFF" d="M41,9H16v32h25V9z M40,40H17V10h23V40z"/>
		</g>
	</g>
</g>
<rect fill="none" width="50" height="50"/>
<path opacity="0.2" fill="#FFFFFF" enable-background="new    " d="M25,13.518L12.142,33h25.716L25,13.518z M25,15.333L36,32H14
	L25,15.333z"/>
<linearGradient id="SVGID_3_" gradientUnits="userSpaceOnUse" x1="306" y1="-339.4167" x2="306" y2="-352.1165" gradientTransform="matrix(1 0 0 -1 -281 -320)">
	<stop  offset="0" style="stop-color:#464646"/>
	<stop  offset="1" style="stop-color:#8C8C8C"/>
</linearGradient>
<polygon fill="url(#SVGID_3_)" points="36,32 25,15.333 14,32 "/>
<path opacity="0.5" enable-background="new    " d="M25,15.333L14,32h22L25,15.333z M25,16.241L35.071,31.5H14.929L25,16.241z"/>
</svg>
