<?xml version="1.0" encoding="utf-8"?>
<!-- Generator: Adobe Illustrator 15.1.0, SVG Export Plug-In . SVG Version: 6.00 Build 0)  -->
<!DOCTYPE svg PUBLIC "-//W3C//DTD SVG 1.1//EN" "http://www.w3.org/Graphics/SVG/1.1/DTD/svg11.dtd">
<svg version="1.1" id="Layer_1" xmlns="http://www.w3.org/2000/svg" xmlns:xlink="http://www.w3.org/1999/xlink" x="0px" y="0px"
	 width="20px" height="25px" viewBox="0 0 20 25" enable-background="new 0 0 20 25" xml:space="preserve">
<path display="none" opacity="0.3" enable-background="new    " d="M20,25H0V0h20V25z M1,24h18V1H1V24z"/>
<rect x="-2.802" y="0.063" fill="none" width="25.604" height="25.604"/>
<path opacity="0.25" enable-background="new    " d="M18.888,8.421h-2.223V4.393c0-0.613-0.497-1.111-1.111-1.111H1.112
	c-0.613,0-1.111,0.499-1.111,1.111v9.584c0,0.612,0.499,1.11,1.111,1.11h1.2v6.666c0,0.613,0.499,1.11,1.111,1.11h13.045
	c0.612,0,1.11-0.497,1.11-1.11v-2.777h1.309c0.613,0,1.11-0.498,1.11-1.111V9.532C19.998,8.919,19.501,8.421,18.888,8.421z
	 M1.111,14.219l0.001-9.826h14.441l0.002,9.826H1.111z M16.469,21.753H3.423v-6.666h2.372v2.777c0,0.613,0.499,1.111,1.111,1.111
	h9.563V21.753z M18.888,17.864H6.906v-2.777h8.647c0.614,0,1.111-0.498,1.111-1.11V9.532h2.223V17.864z"/>
<polygon opacity="0.25" enable-background="new    " points="2.747,12.716 5.555,8.175 8.57,11.602 10.473,8.935 13.232,12.716 "/>
<rect x="9.438" y="5.79" opacity="0.25" width="2.229" height="2.229"/>
</svg>
