<?xml version="1.0" encoding="utf-8"?>
<!-- Generator: Adobe Illustrator 15.1.0, SVG Export Plug-In . SVG Version: 6.00 Build 0)  -->
<!DOCTYPE svg PUBLIC "-//W3C//DTD SVG 1.1//EN" "http://www.w3.org/Graphics/SVG/1.1/DTD/svg11.dtd">
<svg version="1.1" id="Layer_1" xmlns="http://www.w3.org/2000/svg" xmlns:xlink="http://www.w3.org/1999/xlink" x="0px" y="0px"
	 width="20px" height="25px" viewBox="0 0 20 25" enable-background="new 0 0 20 25" xml:space="preserve">
<polygon display="none" opacity="0.3" enable-background="new    " points="5.927,5.937 5.927,19.063 16.072,12.501 "/>
<path display="none" d="M20,25H0V0h20V25z M1,24h18V1H1V24z"/>
<path opacity="0.2" d="M20,25H0V0h20V25z M1,24h18V1H1V24z"/>
<path opacity="0.3" d="M9.253,18.031c-0.091-0.228-0.17-0.525-0.239-0.894c-0.068-0.368-0.102-0.734-0.102-1.099
	c0-0.428,0.057-0.816,0.17-1.167c0.114-0.35,0.273-0.68,0.478-0.989c0.205-0.309,0.45-0.609,0.736-0.9
	c0.287-0.291,0.604-0.587,0.949-0.887c0.291-0.264,0.577-0.539,0.859-0.825c0.281-0.287,0.532-0.594,0.75-0.921
	c0.219-0.328,0.394-0.685,0.525-1.071s0.198-0.812,0.198-1.275c0-0.5-0.084-0.949-0.253-1.344c-0.168-0.396-0.402-0.732-0.702-1.01
	c-0.301-0.277-0.662-0.489-1.085-0.634s-0.889-0.218-1.398-0.218c-0.855,0-1.645,0.15-2.367,0.45c-0.724,0.3-1.403,0.709-2.04,1.228
	v-1.46c0.646-0.491,1.326-0.855,2.04-1.092c0.714-0.236,1.507-0.354,2.381-0.354c0.673,0,1.298,0.096,1.876,0.287
	c0.577,0.191,1.078,0.471,1.501,0.839c0.424,0.369,0.754,0.819,0.996,1.351c0.24,0.532,0.361,1.139,0.361,1.821
	c0,0.519-0.073,0.992-0.219,1.419c-0.146,0.428-0.333,0.823-0.566,1.187c-0.231,0.364-0.497,0.705-0.798,1.023
	c-0.3,0.318-0.604,0.627-0.914,0.928c-0.481,0.455-0.875,0.839-1.18,1.153c-0.306,0.314-0.544,0.599-0.717,0.853
	c-0.173,0.255-0.294,0.503-0.361,0.744c-0.068,0.241-0.103,0.525-0.103,0.853c0,0.418,0.037,0.798,0.109,1.14
	c0.072,0.341,0.146,0.63,0.219,0.866H9.253z M9.731,21.707c-0.309,0-0.566-0.107-0.771-0.321c-0.205-0.212-0.307-0.475-0.307-0.784
	c0-0.318,0.102-0.58,0.307-0.783c0.205-0.206,0.461-0.308,0.771-0.308c0.318,0,0.584,0.102,0.798,0.308
	c0.214,0.203,0.32,0.465,0.32,0.783c0,0.31-0.106,0.572-0.32,0.784C10.315,21.6,10.049,21.707,9.731,21.707z"/>
</svg>
