<?xml version="1.0" encoding="utf-8"?>
<!-- Generator: Adobe Illustrator 16.0.0, SVG Export Plug-In . SVG Version: 6.00 Build 0)  -->
<!DOCTYPE svg PUBLIC "-//W3C//DTD SVG 1.1//EN" "http://www.w3.org/Graphics/SVG/1.1/DTD/svg11.dtd">
<svg version="1.1" id="Layer_1" xmlns="http://www.w3.org/2000/svg" xmlns:xlink="http://www.w3.org/1999/xlink" x="0px" y="0px"
	 width="50px" height="50px" viewBox="0 0 50 50" enable-background="new 0 0 50 50" xml:space="preserve">
<g>
	<rect x="34" y="15" width="2" height="20"/>
	<polygon points="19.57,18.258 18.156,16.844 10,25 18.156,33.156 19.57,31.742 13.828,26 32,26 32,24 13.828,24 	"/>
</g>
<path d="M0,50h50V0H0V50z M1,1.707l11.068,11.068l0.707-0.707L1.707,1h46.586L37.068,12.225l0.707,0.707L49,1.708v46.585
	L37.932,37.225l-0.707,0.707L48.293,49H1.707l10.912-10.912l-0.707-0.707L1,48.293V1.707z"/>
</svg>
