<?xml version="1.0" encoding="utf-8"?>
<!-- Generator: Adobe Illustrator 15.1.0, SVG Export Plug-In . SVG Version: 6.00 Build 0)  -->
<!DOCTYPE svg PUBLIC "-//W3C//DTD SVG 1.1//EN" "http://www.w3.org/Graphics/SVG/1.1/DTD/svg11.dtd">
<svg version="1.1" id="Layer_1" xmlns="http://www.w3.org/2000/svg" xmlns:xlink="http://www.w3.org/1999/xlink" x="0px" y="0px"
	 width="50px" height="50px" viewBox="0 0 50 50" enable-background="new 0 0 50 50" xml:space="preserve">
<radialGradient id="SVGID_1_" cx="623.4199" cy="-674.6802" r="25.3006" gradientTransform="matrix(1 0 0 -1 -605.0195 -657.4805)" gradientUnits="userSpaceOnUse">
	<stop  offset="0" style="stop-color:#529FFF"/>
	<stop  offset="1" style="stop-color:#4E7EBA"/>
</radialGradient>
<circle fill="url(#SVGID_1_)" cx="25" cy="25" r="24"/>
<g opacity="0.1">
	<path fill="#FFFFFF" d="M25,1C11.747,1,1,11.747,1,25s10.747,24,24,24c13.249,0,24-10.747,24-24C49,11.748,38.249,1,25,1z M25,48
		C12.318,48,2,37.684,2,25C2,12.318,12.318,2,25,2c12.684,0,23,10.318,23,23C48.001,37.684,37.684,48,25,48z"/>
</g>
<ellipse transform="matrix(-0.6839 0.7296 -0.7296 -0.6839 39.4 15.3447)" opacity="0.9" fill="#FFFFFF" cx="16.376" cy="16.208" rx="7.333" ry="6.249"/>
</svg>
