<?xml version="1.0" encoding="utf-8"?>
<!-- Generator: Adobe Illustrator 15.1.0, SVG Export Plug-In . SVG Version: 6.00 Build 0)  -->
<!DOCTYPE svg PUBLIC "-//W3C//DTD SVG 1.1//EN" "http://www.w3.org/Graphics/SVG/1.1/DTD/svg11.dtd">
<svg version="1.1" id="Layer_1" xmlns="http://www.w3.org/2000/svg" xmlns:xlink="http://www.w3.org/1999/xlink" x="0px" y="0px"
	 width="25px" height="25px" viewBox="0 0 25 25" enable-background="new 0 0 25 25" xml:space="preserve">
<path fill="#0046BE" d="M12.5,2.5c-5.522,0-10,4.478-10,10c0,5.521,4.478,10,10,10c5.521,0,10-4.479,10-10
	C22.5,6.978,18.021,2.5,12.5,2.5z M17.525,18.325c-0.313,0.313-0.819,0.313-1.132,0l-4.183-4.183
	c-0.297-0.117-0.51-0.403-0.51-0.742V3.7c0-0.442,0.358-0.8,0.8-0.8c0.442,0,0.8,0.358,0.8,0.8v9.269l4.226,4.225
	C17.838,17.506,17.838,18.013,17.525,18.325z"/>
</svg>
